latitude,longitude
10.5,-85.5
10.5,-84.5
10.5,-83.5
11.5,-84.5
12.5,-86.5
12.5,-85.5
12.5,-84.5
13.5,-88.5
13.5,-87.5
13.5,-86.5
13.5,-85.5
13.5,-84.5
14.5,-91.5
14.5,-90.5
14.5,-89.5
14.5,-88.5
14.5,-87.5
14.5,-86.5
14.5,-85.5
14.5,-84.5
14.5,-83.5
15.5,-92.5
15.5,-91.5
15.5,-90.5
15.5,-89.5
15.5,-88.5
15.5,-87.5
15.5,-86.5
15.5,-85.5
15.5,-84.5
16.5,-98.5
16.5,-97.5
16.5,-96.5
16.5,-95.5
16.5,-94.5
16.5,-93.5
16.5,-92.5
16.5,-91.5
16.5,-90.5
16.5,-89.5
17.5,-100.5
17.5,-99.5
17.5,-98.5
17.5,-97.5
17.5,-96.5
17.5,-95.5
17.5,-94.5
17.5,-93.5
17.5,-92.5
17.5,-91.5
17.5,-90.5
17.5,-89.5
17.5,-88.5
18.5,-103.5
18.5,-102.5
18.5,-101.5
18.5,-100.5
18.5,-99.5
18.5,-98.5
18.5,-97.5
18.5,-96.5
18.5,-95.5
18.5,-92.5
18.5,-91.5
18.5,-90.5
18.5,-89.5
18.5,-88.5
18.5,-72.5
18.5,-71.5
18.5,-70.5
18.5,-69.5
19.5,-104.5
19.5,-103.5
19.5,-102.5
19.5,-101.5
19.5,-100.5
19.5,-99.5
19.5,-98.5
19.5,-97.5
19.5,-96.5
19.5,-90.5
19.5,-89.5
19.5,-88.5
19.5,-72.5
19.5,-71.5
19.5,-70.5
20.5,-104.5
20.5,-103.5
20.5,-102.5
20.5,-101.5
20.5,-100.5
20.5,-99.5
20.5,-98.5
20.5,-97.5
20.5,-89.5
20.5,-88.5
20.5,-87.5
20.5,-76.5
20.5,-75.5
21.5,-104.5
21.5,-103.5
21.5,-102.5
21.5,-101.5
21.5,-100.5
21.5,-99.5
21.5,-98.5
21.5,-88.5
21.5,-87.5
21.5,-78.5
21.5,-77.5
22.5,-104.5
22.5,-103.5
22.5,-102.5
22.5,-101.5
22.5,-100.5
22.5,-99.5
22.5,-98.5
22.5,-83.5
22.5,-81.5
22.5,-80.5
22.5,-79.5
23.5,-106.5
23.5,-105.5
23.5,-104.5
23.5,-103.5
23.5,-102.5
23.5,-101.5
23.5,-100.5
23.5,-99.5
23.5,-98.5
24.5,-111.5
24.5,-107.5
24.5,-106.5
24.5,-105.5
24.5,-104.5
24.5,-103.5
24.5,-102.5
24.5,-101.5
24.5,-100.5
24.5,-99.5
24.5,-98.5
25.5,-111.5
25.5,-108.5
25.5,-107.5
25.5,-106.5
25.5,-105.5
25.5,-104.5
25.5,-103.5
25.5,-102.5
25.5,-101.5
25.5,-100.5
25.5,-99.5
25.5,-98.5
25.5,-97.5
25.5,-80.5
26.5,-112.5
26.5,-108.5
26.5,-107.5
26.5,-106.5
26.5,-105.5
26.5,-104.5
26.5,-103.5
26.5,-102.5
26.5,-101.5
26.5,-100.5
26.5,-99.5
26.5,-98.5
26.5,-97.5
26.5,-81.5
26.5,-80.5
27.5,-113.5
27.5,-112.5
27.5,-109.5
27.5,-108.5
27.5,-107.5
27.5,-106.5
27.5,-105.5
27.5,-104.5
27.5,-103.5
27.5,-102.5
27.5,-101.5
27.5,-100.5
27.5,-99.5
27.5,-98.5
27.5,-97.5
27.5,-82.5
27.5,-81.5
27.5,-80.5
28.5,-113.5
28.5,-111.5
28.5,-110.5
28.5,-109.5
28.5,-108.5
28.5,-107.5
28.5,-106.5
28.5,-105.5
28.5,-104.5
28.5,-103.5
28.5,-102.5
28.5,-101.5
28.5,-100.5
28.5,-99.5
28.5,-98.5
28.5,-97.5
28.5,-96.5
28.5,-82.5
28.5,-81.5
29.5,-114.5
29.5,-111.5
29.5,-110.5
29.5,-109.5
29.5,-108.5
29.5,-107.5
29.5,-106.5
29.5,-105.5
29.5,-104.5
29.5,-103.5
29.5,-102.5
29.5,-101.5
29.5,-100.5
29.5,-99.5
29.5,-98.5
29.5,-97.5
29.5,-96.5
29.5,-95.5
29.5,-90.5
29.5,-82.5
29.5,-81.5
30.5,-115.5
30.5,-112.5
30.5,-111.5
30.5,-110.5
30.5,-109.5
30.5,-108.5
30.5,-107.5
30.5,-106.5
30.5,-105.5
30.5,-104.5
30.5,-103.5
30.5,-102.5
30.5,-101.5
30.5,-100.5
30.5,-99.5
30.5,-98.5
30.5,-97.5
30.5,-96.5
30.5,-95.5
30.5,-94.5
30.5,-93.5
30.5,-92.5
30.5,-91.5
30.5,-90.5
30.5,-89.5
30.5,-87.5
30.5,-86.5
30.5,-85.5
30.5,-84.5
30.5,-83.5
30.5,-82.5
30.5,-81.5
31.5,-116.5
31.5,-115.5
31.5,-113.5
31.5,-112.5
31.5,-111.5
31.5,-110.5
31.5,-109.5
31.5,-108.5
31.5,-107.5
31.5,-106.5
31.5,-105.5
31.5,-104.5
31.5,-103.5
31.5,-102.5
31.5,-101.5
31.5,-100.5
31.5,-99.5
31.5,-98.5
31.5,-97.5
31.5,-96.5
31.5,-95.5
31.5,-94.5
31.5,-93.5
31.5,-92.5
31.5,-91.5
31.5,-90.5
31.5,-89.5
31.5,-88.5
31.5,-87.5
31.5,-86.5
31.5,-85.5
31.5,-84.5
31.5,-83.5
31.5,-82.5
31.5,-81.5
32.5,-116.5
32.5,-115.5
32.5,-114.5
32.5,-113.5
32.5,-112.5
32.5,-111.5
32.5,-110.5
32.5,-109.5
32.5,-108.5
32.5,-107.5
32.5,-106.5
32.5,-105.5
32.5,-104.5
32.5,-103.5
32.5,-102.5
32.5,-101.5
32.5,-100.5
32.5,-99.5
32.5,-98.5
32.5,-97.5
32.5,-96.5
32.5,-95.5
32.5,-94.5
32.5,-93.5
32.5,-92.5
32.5,-91.5
32.5,-90.5
32.5,-89.5
32.5,-88.5
32.5,-87.5
32.5,-86.5
32.5,-85.5
32.5,-84.5
32.5,-83.5
32.5,-82.5
32.5,-81.5
33.5,-117.5
33.5,-116.5
33.5,-115.5
33.5,-114.5
33.5,-113.5
33.5,-112.5
33.5,-111.5
33.5,-110.5
33.5,-109.5
33.5,-108.5
33.5,-107.5
33.5,-106.5
33.5,-105.5
33.5,-104.5
33.5,-103.5
33.5,-102.5
33.5,-101.5
33.5,-100.5
33.5,-99.5
33.5,-98.5
33.5,-97.5
33.5,-96.5
33.5,-95.5
33.5,-94.5
33.5,-93.5
33.5,-92.5
33.5,-91.5
33.5,-90.5
33.5,-89.5
33.5,-88.5
33.5,-87.5
33.5,-86.5
33.5,-85.5
33.5,-84.5
33.5,-83.5
33.5,-82.5
33.5,-81.5
33.5,-80.5
33.5,-79.5
34.5,-119.5
34.5,-118.5
34.5,-117.5
34.5,-116.5
34.5,-115.5
34.5,-114.5
34.5,-113.5
34.5,-112.5
34.5,-111.5
34.5,-110.5
34.5,-109.5
34.5,-108.5
34.5,-107.5
34.5,-106.5
34.5,-105.5
34.5,-104.5
34.5,-103.5
34.5,-102.5
34.5,-101.5
34.5,-100.5
34.5,-99.5
34.5,-98.5
34.5,-97.5
34.5,-96.5
34.5,-95.5
34.5,-94.5
34.5,-93.5
34.5,-92.5
34.5,-91.5
34.5,-90.5
34.5,-89.5
34.5,-88.5
34.5,-87.5
34.5,-86.5
34.5,-85.5
34.5,-84.5
34.5,-83.5
34.5,-82.5
34.5,-81.5
34.5,-80.5
34.5,-79.5
34.5,-78.5
35.5,-120.5
35.5,-119.5
35.5,-118.5
35.5,-117.5
35.5,-116.5
35.5,-115.5
35.5,-114.5
35.5,-113.5
35.5,-112.5
35.5,-111.5
35.5,-110.5
35.5,-109.5
35.5,-108.5
35.5,-107.5
35.5,-106.5
35.5,-105.5
35.5,-104.5
35.5,-103.5
35.5,-102.5
35.5,-101.5
35.5,-100.5
35.5,-99.5
35.5,-98.5
35.5,-97.5
35.5,-96.5
35.5,-95.5
35.5,-94.5
35.5,-93.5
35.5,-92.5
35.5,-91.5
35.5,-90.5
35.5,-89.5
35.5,-88.5
35.5,-87.5
35.5,-86.5
35.5,-85.5
35.5,-84.5
35.5,-83.5
35.5,-82.5
35.5,-81.5
35.5,-80.5
35.5,-79.5
35.5,-78.5
35.5,-77.5
35.5,-76.5
36.5,-121.5
36.5,-120.5
36.5,-119.5
36.5,-118.5
36.5,-117.5
36.5,-116.5
36.5,-115.5
36.5,-114.5
36.5,-113.5
36.5,-112.5
36.5,-111.5
36.5,-110.5
36.5,-109.5
36.5,-108.5
36.5,-107.5
36.5,-106.5
36.5,-105.5
36.5,-104.5
36.5,-103.5
36.5,-102.5
36.5,-101.5
36.5,-100.5
36.5,-99.5
36.5,-98.5
36.5,-97.5
36.5,-96.5
36.5,-95.5
36.5,-94.5
36.5,-93.5
36.5,-92.5
36.5,-91.5
36.5,-90.5
36.5,-89.5
36.5,-88.5
36.5,-87.5
36.5,-86.5
36.5,-85.5
36.5,-84.5
36.5,-83.5
36.5,-82.5
36.5,-81.5
36.5,-80.5
36.5,-79.5
36.5,-78.5
36.5,-77.5
36.5,-76.5
37.5,-121.5
37.5,-120.5
37.5,-119.5
37.5,-118.5
37.5,-117.5
37.5,-116.5
37.5,-115.5
37.5,-114.5
37.5,-113.5
37.5,-112.5
37.5,-111.5
37.5,-110.5
37.5,-109.5
37.5,-108.5
37.5,-107.5
37.5,-106.5
37.5,-105.5
37.5,-104.5
37.5,-103.5
37.5,-102.5
37.5,-101.5
37.5,-100.5
37.5,-99.5
37.5,-98.5
37.5,-97.5
37.5,-96.5
37.5,-95.5
37.5,-94.5
37.5,-93.5
37.5,-92.5
37.5,-91.5
37.5,-90.5
37.5,-89.5
37.5,-88.5
37.5,-87.5
37.5,-86.5
37.5,-85.5
37.5,-84.5
37.5,-83.5
37.5,-82.5
37.5,-81.5
37.5,-80.5
37.5,-79.5
37.5,-78.5
37.5,-77.5
37.5,-76.5
38.5,-122.5
38.5,-121.5
38.5,-120.5
38.5,-119.5
38.5,-118.5
38.5,-117.5
38.5,-116.5
38.5,-115.5
38.5,-114.5
38.5,-113.5
38.5,-112.5
38.5,-111.5
38.5,-110.5
38.5,-109.5
38.5,-108.5
38.5,-107.5
38.5,-106.5
38.5,-105.5
38.5,-104.5
38.5,-103.5
38.5,-102.5
38.5,-101.5
38.5,-100.5
38.5,-99.5
38.5,-98.5
38.5,-97.5
38.5,-96.5
38.5,-95.5
38.5,-94.5
38.5,-93.5
38.5,-92.5
38.5,-91.5
38.5,-90.5
38.5,-89.5
38.5,-88.5
38.5,-87.5
38.5,-86.5
38.5,-85.5
38.5,-84.5
38.5,-83.5
38.5,-82.5
38.5,-81.5
38.5,-80.5
38.5,-79.5
38.5,-78.5
38.5,-77.5
38.5,-76.5
38.5,-75.5
39.5,-123.5
39.5,-122.5
39.5,-121.5
39.5,-120.5
39.5,-119.5
39.5,-118.5
39.5,-117.5
39.5,-116.5
39.5,-115.5
39.5,-114.5
39.5,-113.5
39.5,-112.5
39.5,-111.5
39.5,-110.5
39.5,-109.5
39.5,-108.5
39.5,-107.5
39.5,-106.5
39.5,-105.5
39.5,-104.5
39.5,-103.5
39.5,-102.5
39.5,-101.5
39.5,-100.5
39.5,-99.5
39.5,-98.5
39.5,-97.5
39.5,-96.5
39.5,-95.5
39.5,-94.5
39.5,-93.5
39.5,-92.5
39.5,-91.5
39.5,-90.5
39.5,-89.5
39.5,-88.5
39.5,-87.5
39.5,-86.5
39.5,-85.5
39.5,-84.5
39.5,-83.5
39.5,-82.5
39.5,-81.5
39.5,-80.5
39.5,-79.5
39.5,-78.5
39.5,-77.5
39.5,-76.5
39.5,-75.5
39.5,-74.5
40.5,-123.5
40.5,-122.5
40.5,-121.5
40.5,-120.5
40.5,-119.5
40.5,-118.5
40.5,-117.5
40.5,-116.5
40.5,-115.5
40.5,-114.5
40.5,-113.5
40.5,-112.5
40.5,-111.5
40.5,-110.5
40.5,-109.5
40.5,-108.5
40.5,-107.5
40.5,-106.5
40.5,-105.5
40.5,-104.5
40.5,-103.5
40.5,-102.5
40.5,-101.5
40.5,-100.5
40.5,-99.5
40.5,-98.5
40.5,-97.5
40.5,-96.5
40.5,-95.5
40.5,-94.5
40.5,-93.5
40.5,-92.5
40.5,-91.5
40.5,-90.5
40.5,-89.5
40.5,-88.5
40.5,-87.5
40.5,-86.5
40.5,-85.5
40.5,-84.5
40.5,-83.5
40.5,-82.5
40.5,-81.5
40.5,-80.5
40.5,-79.5
40.5,-78.5
40.5,-77.5
40.5,-76.5
40.5,-75.5
40.5,-74.5
41.5,-123.5
41.5,-122.5
41.5,-121.5
41.5,-120.5
41.5,-119.5
41.5,-118.5
41.5,-117.5
41.5,-116.5
41.5,-115.5
41.5,-114.5
41.5,-113.5
41.5,-112.5
41.5,-111.5
41.5,-110.5
41.5,-109.5
41.5,-108.5
41.5,-107.5
41.5,-106.5
41.5,-105.5
41.5,-104.5
41.5,-103.5
41.5,-102.5
41.5,-101.5
41.5,-100.5
41.5,-99.5
41.5,-98.5
41.5,-97.5
41.5,-96.5
41.5,-95.5
41.5,-94.5
41.5,-93.5
41.5,-92.5
41.5,-91.5
41.5,-90.5
41.5,-89.5
41.5,-88.5
41.5,-87.5
41.5,-86.5
41.5,-85.5
41.5,-84.5
41.5,-83.5
41.5,-81.5
41.5,-80.5
41.5,-79.5
41.5,-78.5
41.5,-77.5
41.5,-76.5
41.5,-75.5
41.5,-74.5
41.5,-73.5
41.5,-72.5
41.5,-71.5
42.5,-123.5
42.5,-122.5
42.5,-121.5
42.5,-120.5
42.5,-119.5
42.5,-118.5
42.5,-117.5
42.5,-116.5
42.5,-115.5
42.5,-114.5
42.5,-113.5
42.5,-112.5
42.5,-111.5
42.5,-110.5
42.5,-109.5
42.5,-108.5
42.5,-107.5
42.5,-106.5
42.5,-105.5
42.5,-104.5
42.5,-103.5
42.5,-102.5
42.5,-101.5
42.5,-100.5
42.5,-99.5
42.5,-98.5
42.5,-97.5
42.5,-96.5
42.5,-95.5
42.5,-94.5
42.5,-93.5
42.5,-92.5
42.5,-91.5
42.5,-90.5
42.5,-89.5
42.5,-88.5
42.5,-85.5
42.5,-84.5
42.5,-83.5
42.5,-82.5
42.5,-79.5
42.5,-78.5
42.5,-77.5
42.5,-76.5
42.5,-75.5
42.5,-74.5
42.5,-73.5
42.5,-72.5
42.5,-71.5
43.5,-123.5
43.5,-122.5
43.5,-121.5
43.5,-120.5
43.5,-119.5
43.5,-118.5
43.5,-117.5
43.5,-116.5
43.5,-115.5
43.5,-114.5
43.5,-113.5
43.5,-112.5
43.5,-111.5
43.5,-110.5
43.5,-109.5
43.5,-108.5
43.5,-107.5
43.5,-106.5
43.5,-105.5
43.5,-104.5
43.5,-103.5
43.5,-102.5
43.5,-101.5
43.5,-100.5
43.5,-99.5
43.5,-98.5
43.5,-97.5
43.5,-96.5
43.5,-95.5
43.5,-94.5
43.5,-93.5
43.5,-92.5
43.5,-91.5
43.5,-90.5
43.5,-89.5
43.5,-88.5
43.5,-85.5
43.5,-84.5
43.5,-83.5
43.5,-81.5
43.5,-80.5
43.5,-79.5
43.5,-76.5
43.5,-75.5
43.5,-74.5
43.5,-73.5
43.5,-72.5
43.5,-71.5
43.5,-70.5
44.5,-123.5
44.5,-122.5
44.5,-121.5
44.5,-120.5
44.5,-119.5
44.5,-118.5
44.5,-117.5
44.5,-116.5
44.5,-115.5
44.5,-114.5
44.5,-113.5
44.5,-112.5
44.5,-111.5
44.5,-110.5
44.5,-109.5
44.5,-108.5
44.5,-107.5
44.5,-106.5
44.5,-105.5
44.5,-104.5
44.5,-103.5
44.5,-102.5
44.5,-101.5
44.5,-100.5
44.5,-99.5
44.5,-98.5
44.5,-97.5
44.5,-96.5
44.5,-95.5
44.5,-94.5
44.5,-93.5
44.5,-92.5
44.5,-91.5
44.5,-90.5
44.5,-89.5
44.5,-88.5
44.5,-85.5
44.5,-84.5
44.5,-83.5
44.5,-80.5
44.5,-79.5
44.5,-78.5
44.5,-77.5
44.5,-76.5
44.5,-75.5
44.5,-74.5
44.5,-73.5
44.5,-72.5
44.5,-71.5
44.5,-70.5
44.5,-69.5
44.5,-68.5
44.5,-65.5
44.5,-64.5
45.5,-123.5
45.5,-122.5
45.5,-121.5
45.5,-120.5
45.5,-119.5
45.5,-118.5
45.5,-117.5
45.5,-116.5
45.5,-115.5
45.5,-114.5
45.5,-113.5
45.5,-112.5
45.5,-111.5
45.5,-110.5
45.5,-109.5
45.5,-108.5
45.5,-107.5
45.5,-106.5
45.5,-105.5
45.5,-104.5
45.5,-103.5
45.5,-102.5
45.5,-101.5
45.5,-100.5
45.5,-99.5
45.5,-98.5
45.5,-97.5
45.5,-96.5
45.5,-95.5
45.5,-94.5
45.5,-93.5
45.5,-92.5
45.5,-91.5
45.5,-90.5
45.5,-89.5
45.5,-88.5
45.5,-87.5
45.5,-84.5
45.5,-79.5
45.5,-78.5
45.5,-77.5
45.5,-76.5
45.5,-75.5
45.5,-74.5
45.5,-73.5
45.5,-72.5
45.5,-71.5
45.5,-70.5
45.5,-69.5
45.5,-68.5
45.5,-67.5
45.5,-66.5
45.5,-65.5
45.5,-64.5
45.5,-63.5
45.5,-62.5
45.5,-61.5
46.5,-123.5
46.5,-122.5
46.5,-121.5
46.5,-120.5
46.5,-119.5
46.5,-118.5
46.5,-117.5
46.5,-116.5
46.5,-115.5
46.5,-114.5
46.5,-113.5
46.5,-112.5
46.5,-111.5
46.5,-110.5
46.5,-109.5
46.5,-108.5
46.5,-107.5
46.5,-106.5
46.5,-105.5
46.5,-104.5
46.5,-103.5
46.5,-102.5
46.5,-101.5
46.5,-100.5
46.5,-99.5
46.5,-98.5
46.5,-97.5
46.5,-96.5
46.5,-95.5
46.5,-94.5
46.5,-93.5
46.5,-92.5
46.5,-91.5
46.5,-90.5
46.5,-89.5
46.5,-88.5
46.5,-87.5
46.5,-86.5
46.5,-85.5
46.5,-84.5
46.5,-83.5
46.5,-82.5
46.5,-81.5
46.5,-80.5
46.5,-79.5
46.5,-78.5
46.5,-77.5
46.5,-76.5
46.5,-75.5
46.5,-74.5
46.5,-73.5
46.5,-72.5
46.5,-71.5
46.5,-70.5
46.5,-69.5
46.5,-68.5
46.5,-67.5
46.5,-66.5
46.5,-65.5
46.5,-64.5
47.5,-123.5
47.5,-122.5
47.5,-121.5
47.5,-120.5
47.5,-119.5
47.5,-118.5
47.5,-117.5
47.5,-116.5
47.5,-115.5
47.5,-114.5
47.5,-113.5
47.5,-112.5
47.5,-111.5
47.5,-110.5
47.5,-109.5
47.5,-108.5
47.5,-107.5
47.5,-106.5
47.5,-105.5
47.5,-104.5
47.5,-103.5
47.5,-102.5
47.5,-101.5
47.5,-100.5
47.5,-99.5
47.5,-98.5
47.5,-97.5
47.5,-96.5
47.5,-95.5
47.5,-94.5
47.5,-93.5
47.5,-92.5
47.5,-91.5
47.5,-84.5
47.5,-83.5
47.5,-82.5
47.5,-81.5
47.5,-80.5
47.5,-79.5
47.5,-78.5
47.5,-77.5
47.5,-76.5
47.5,-75.5
47.5,-74.5
47.5,-73.5
47.5,-72.5
47.5,-71.5
47.5,-70.5
47.5,-69.5
47.5,-68.5
47.5,-67.5
47.5,-66.5
47.5,-65.5
47.5,-55.5
47.5,-53.5
48.5,-124.5
48.5,-122.5
48.5,-121.5
48.5,-120.5
48.5,-119.5
48.5,-118.5
48.5,-117.5
48.5,-116.5
48.5,-115.5
48.5,-114.5
48.5,-113.5
48.5,-112.5
48.5,-111.5
48.5,-110.5
48.5,-109.5
48.5,-108.5
48.5,-107.5
48.5,-106.5
48.5,-105.5
48.5,-104.5
48.5,-103.5
48.5,-102.5
48.5,-101.5
48.5,-100.5
48.5,-99.5
48.5,-98.5
48.5,-97.5
48.5,-96.5
48.5,-95.5
48.5,-94.5
48.5,-93.5
48.5,-92.5
48.5,-91.5
48.5,-90.5
48.5,-89.5
48.5,-85.5
48.5,-84.5
48.5,-83.5
48.5,-82.5
48.5,-81.5
48.5,-80.5
48.5,-79.5
48.5,-78.5
48.5,-77.5
48.5,-76.5
48.5,-75.5
48.5,-74.5
48.5,-73.5
48.5,-72.5
48.5,-71.5
48.5,-70.5
48.5,-69.5
48.5,-68.5
48.5,-67.5
48.5,-66.5
48.5,-65.5
48.5,-58.5
48.5,-57.5
48.5,-56.5
48.5,-55.5
48.5,-54.5
49.5,-125.5
49.5,-124.5
49.5,-123.5
49.5,-122.5
49.5,-121.5
49.5,-120.5
49.5,-119.5
49.5,-118.5
49.5,-117.5
49.5,-116.5
49.5,-115.5
49.5,-114.5
49.5,-113.5
49.5,-112.5
49.5,-111.5
49.5,-110.5
49.5,-109.5
49.5,-108.5
49.5,-107.5
49.5,-106.5
49.5,-105.5
49.5,-104.5
49.5,-103.5
49.5,-102.5
49.5,-101.5
49.5,-100.5
49.5,-99.5
49.5,-98.5
49.5,-97.5
49.5,-96.5
49.5,-95.5
49.5,-93.5
49.5,-92.5
49.5,-91.5
49.5,-90.5
49.5,-89.5
49.5,-87.5
49.5,-86.5
49.5,-85.5
49.5,-84.5
49.5,-83.5
49.5,-82.5
49.5,-81.5
49.5,-80.5
49.5,-79.5
49.5,-78.5
49.5,-77.5
49.5,-76.5
49.5,-75.5
49.5,-74.5
49.5,-73.5
49.5,-72.5
49.5,-71.5
49.5,-70.5
49.5,-69.5
49.5,-68.5
49.5,-67.5
49.5,-57.5
49.5,-56.5
49.5,-55.5
50.5,-127.5
50.5,-126.5
50.5,-125.5
50.5,-124.5
50.5,-123.5
50.5,-122.5
50.5,-121.5
50.5,-120.5
50.5,-119.5
50.5,-118.5
50.5,-117.5
50.5,-116.5
50.5,-115.5
50.5,-114.5
50.5,-113.5
50.5,-112.5
50.5,-111.5
50.5,-110.5
50.5,-109.5
50.5,-108.5
50.5,-107.5
50.5,-106.5
50.5,-105.5
50.5,-104.5
50.5,-103.5
50.5,-102.5
50.5,-101.5
50.5,-100.5
50.5,-99.5
50.5,-98.5
50.5,-97.5
50.5,-96.5
50.5,-95.5
50.5,-94.5
50.5,-93.5
50.5,-92.5
50.5,-91.5
50.5,-90.5
50.5,-89.5
50.5,-88.5
50.5,-87.5
50.5,-86.5
50.5,-85.5
50.5,-84.5
50.5,-83.5
50.5,-82.5
50.5,-81.5
50.5,-80.5
50.5,-79.5
50.5,-78.5
50.5,-77.5
50.5,-76.5
50.5,-75.5
50.5,-74.5
50.5,-73.5
50.5,-72.5
50.5,-71.5
50.5,-70.5
50.5,-69.5
50.5,-68.5
50.5,-67.5
50.5,-66.5
50.5,-65.5
50.5,-64.5
50.5,-63.5
50.5,-62.5
50.5,-61.5
50.5,-60.5
50.5,-56.5
51.5,-127.5
51.5,-126.5
51.5,-125.5
51.5,-124.5
51.5,-123.5
51.5,-122.5
51.5,-121.5
51.5,-120.5
51.5,-119.5
51.5,-118.5
51.5,-117.5
51.5,-116.5
51.5,-115.5
51.5,-114.5
51.5,-113.5
51.5,-112.5
51.5,-111.5
51.5,-110.5
51.5,-109.5
51.5,-108.5
51.5,-107.5
51.5,-106.5
51.5,-105.5
51.5,-104.5
51.5,-103.5
51.5,-102.5
51.5,-101.5
51.5,-100.5
51.5,-99.5
51.5,-98.5
51.5,-97.5
51.5,-96.5
51.5,-95.5
51.5,-94.5
51.5,-93.5
51.5,-92.5
51.5,-91.5
51.5,-90.5
51.5,-89.5
51.5,-88.5
51.5,-87.5
51.5,-86.5
51.5,-85.5
51.5,-84.5
51.5,-83.5
51.5,-82.5
51.5,-81.5
51.5,-80.5
51.5,-78.5
51.5,-77.5
51.5,-76.5
51.5,-75.5
51.5,-74.5
51.5,-73.5
51.5,-72.5
51.5,-71.5
51.5,-70.5
51.5,-69.5
51.5,-68.5
51.5,-67.5
51.5,-66.5
51.5,-65.5
51.5,-64.5
51.5,-63.5
51.5,-62.5
51.5,-61.5
51.5,-60.5
51.5,-59.5
51.5,-58.5
51.5,-57.5
51.5,-56.5
52.5,-127.5
52.5,-126.5
52.5,-125.5
52.5,-124.5
52.5,-123.5
52.5,-122.5
52.5,-121.5
52.5,-120.5
52.5,-119.5
52.5,-118.5
52.5,-117.5
52.5,-116.5
52.5,-115.5
52.5,-114.5
52.5,-113.5
52.5,-112.5
52.5,-111.5
52.5,-110.5
52.5,-109.5
52.5,-108.5
52.5,-107.5
52.5,-106.5
52.5,-105.5
52.5,-104.5
52.5,-103.5
52.5,-102.5
52.5,-101.5
52.5,-100.5
52.5,-96.5
52.5,-95.5
52.5,-94.5
52.5,-93.5
52.5,-92.5
52.5,-91.5
52.5,-90.5
52.5,-89.5
52.5,-88.5
52.5,-87.5
52.5,-86.5
52.5,-85.5
52.5,-84.5
52.5,-83.5
52.5,-82.5
52.5,-78.5
52.5,-77.5
52.5,-76.5
52.5,-75.5
52.5,-74.5
52.5,-73.5
52.5,-72.5
52.5,-71.5
52.5,-70.5
52.5,-69.5
52.5,-68.5
52.5,-67.5
52.5,-66.5
52.5,-65.5
52.5,-64.5
52.5,-63.5
52.5,-62.5
52.5,-61.5
52.5,-60.5
52.5,-59.5
52.5,-58.5
52.5,-57.5
52.5,-56.5
53.5,-132.5
53.5,-129.5
53.5,-128.5
53.5,-127.5
53.5,-126.5
53.5,-125.5
53.5,-124.5
53.5,-123.5
53.5,-122.5
53.5,-121.5
53.5,-120.5
53.5,-119.5
53.5,-118.5
53.5,-117.5
53.5,-116.5
53.5,-115.5
53.5,-114.5
53.5,-113.5
53.5,-112.5
53.5,-111.5
53.5,-110.5
53.5,-109.5
53.5,-108.5
53.5,-107.5
53.5,-106.5
53.5,-105.5
53.5,-104.5
53.5,-103.5
53.5,-102.5
53.5,-101.5
53.5,-99.5
53.5,-97.5
53.5,-96.5
53.5,-95.5
53.5,-94.5
53.5,-93.5
53.5,-92.5
53.5,-91.5
53.5,-90.5
53.5,-89.5
53.5,-88.5
53.5,-87.5
53.5,-86.5
53.5,-85.5
53.5,-84.5
53.5,-83.5
53.5,-82.5
53.5,-78.5
53.5,-77.5
53.5,-74.5
53.5,-73.5
53.5,-72.5
53.5,-71.5
53.5,-70.5
53.5,-69.5
53.5,-67.5
53.5,-66.5
53.5,-65.5
53.5,-64.5
53.5,-63.5
53.5,-62.5
53.5,-61.5
53.5,-60.5
53.5,-59.5
53.5,-58.5
53.5,-57.5
53.5,-56.5
54.5,-129.5
54.5,-128.5
54.5,-127.5
54.5,-126.5
54.5,-125.5
54.5,-124.5
54.5,-123.5
54.5,-122.5
54.5,-121.5
54.5,-120.5
54.5,-119.5
54.5,-118.5
54.5,-117.5
54.5,-116.5
54.5,-115.5
54.5,-114.5
54.5,-113.5
54.5,-112.5
54.5,-111.5
54.5,-110.5
54.5,-109.5
54.5,-108.5
54.5,-107.5
54.5,-106.5
54.5,-105.5
54.5,-104.5
54.5,-103.5
54.5,-101.5
54.5,-100.5
54.5,-99.5
54.5,-98.5
54.5,-97.5
54.5,-96.5
54.5,-95.5
54.5,-94.5
54.5,-93.5
54.5,-92.5
54.5,-91.5
54.5,-90.5
54.5,-89.5
54.5,-88.5
54.5,-87.5
54.5,-86.5
54.5,-85.5
54.5,-84.5
54.5,-83.5
54.5,-82.5
54.5,-78.5
54.5,-77.5
54.5,-76.5
54.5,-75.5
54.5,-74.5
54.5,-73.5
54.5,-72.5
54.5,-71.5
54.5,-70.5
54.5,-69.5
54.5,-68.5
54.5,-67.5
54.5,-66.5
54.5,-63.5
54.5,-62.5
54.5,-61.5
54.5,-60.5
54.5,-59.5
54.5,-58.5
55.5,-161.5
55.5,-132.5
55.5,-131.5
55.5,-130.5
55.5,-129.5
55.5,-128.5
55.5,-127.5
55.5,-126.5
55.5,-125.5
55.5,-124.5
55.5,-123.5
55.5,-122.5
55.5,-121.5
55.5,-120.5
55.5,-119.5
55.5,-118.5
55.5,-117.5
55.5,-116.5
55.5,-115.5
55.5,-114.5
55.5,-113.5
55.5,-112.5
55.5,-111.5
55.5,-110.5
55.5,-109.5
55.5,-108.5
55.5,-107.5
55.5,-106.5
55.5,-105.5
55.5,-104.5
55.5,-103.5
55.5,-102.5
55.5,-101.5
55.5,-100.5
55.5,-99.5
55.5,-98.5
55.5,-97.5
55.5,-96.5
55.5,-95.5
55.5,-94.5
55.5,-93.5
55.5,-92.5
55.5,-91.5
55.5,-90.5
55.5,-89.5
55.5,-88.5
55.5,-87.5
55.5,-86.5
55.5,-76.5
55.5,-75.5
55.5,-74.5
55.5,-73.5
55.5,-72.5
55.5,-71.5
55.5,-70.5
55.5,-69.5
55.5,-68.5
55.5,-67.5
55.5,-66.5
55.5,-65.5
55.5,-64.5
55.5,-63.5
55.5,-62.5
55.5,-61.5
56.5,-159.5
56.5,-158.5
56.5,-132.5
56.5,-131.5
56.5,-130.5
56.5,-129.5
56.5,-128.5
56.5,-127.5
56.5,-126.5
56.5,-125.5
56.5,-124.5
56.5,-123.5
56.5,-122.5
56.5,-121.5
56.5,-120.5
56.5,-119.5
56.5,-118.5
56.5,-117.5
56.5,-116.5
56.5,-115.5
56.5,-114.5
56.5,-113.5
56.5,-112.5
56.5,-111.5
56.5,-110.5
56.5,-109.5
56.5,-108.5
56.5,-107.5
56.5,-106.5
56.5,-105.5
56.5,-104.5
56.5,-103.5
56.5,-102.5
56.5,-101.5
56.5,-100.5
56.5,-99.5
56.5,-98.5
56.5,-97.5
56.5,-96.5
56.5,-95.5
56.5,-94.5
56.5,-93.5
56.5,-92.5
56.5,-91.5
56.5,-90.5
56.5,-89.5
56.5,-88.5
56.5,-75.5
56.5,-73.5
56.5,-72.5
56.5,-71.5
56.5,-70.5
56.5,-69.5
56.5,-68.5
56.5,-67.5
56.5,-66.5
56.5,-65.5
56.5,-64.5
56.5,-63.5
56.5,-62.5
57.5,-157.5
57.5,-156.5
57.5,-153.5
57.5,-135.5
57.5,-134.5
57.5,-133.5
57.5,-132.5
57.5,-131.5
57.5,-130.5
57.5,-129.5
57.5,-128.5
57.5,-127.5
57.5,-126.5
57.5,-125.5
57.5,-124.5
57.5,-123.5
57.5,-122.5
57.5,-121.5
57.5,-120.5
57.5,-119.5
57.5,-118.5
57.5,-117.5
57.5,-116.5
57.5,-115.5
57.5,-114.5
57.5,-113.5
57.5,-112.5
57.5,-111.5
57.5,-110.5
57.5,-109.5
57.5,-108.5
57.5,-107.5
57.5,-106.5
57.5,-105.5
57.5,-104.5
57.5,-103.5
57.5,-101.5
57.5,-100.5
57.5,-99.5
57.5,-98.5
57.5,-97.5
57.5,-96.5
57.5,-95.5
57.5,-94.5
57.5,-93.5
57.5,-76.5
57.5,-75.5
57.5,-74.5
57.5,-73.5
57.5,-72.5
57.5,-71.5
57.5,-70.5
57.5,-69.5
57.5,-68.5
57.5,-67.5
57.5,-66.5
57.5,-65.5
57.5,-64.5
57.5,-63.5
57.5,-62.5
58.5,-157.5
58.5,-156.5
58.5,-155.5
58.5,-154.5
58.5,-136.5
58.5,-135.5
58.5,-134.5
58.5,-133.5
58.5,-132.5
58.5,-131.5
58.5,-130.5
58.5,-129.5
58.5,-128.5
58.5,-127.5
58.5,-126.5
58.5,-125.5
58.5,-124.5
58.5,-123.5
58.5,-122.5
58.5,-121.5
58.5,-120.5
58.5,-119.5
58.5,-118.5
58.5,-117.5
58.5,-116.5
58.5,-115.5
58.5,-114.5
58.5,-113.5
58.5,-112.5
58.5,-111.5
58.5,-110.5
58.5,-109.5
58.5,-108.5
58.5,-107.5
58.5,-106.5
58.5,-105.5
58.5,-104.5
58.5,-103.5
58.5,-102.5
58.5,-101.5
58.5,-100.5
58.5,-99.5
58.5,-98.5
58.5,-97.5
58.5,-96.5
58.5,-95.5
58.5,-94.5
58.5,-93.5
58.5,-77.5
58.5,-76.5
58.5,-75.5
58.5,-74.5
58.5,-73.5
58.5,-72.5
58.5,-71.5
58.5,-70.5
58.5,-69.5
58.5,-68.5
58.5,-66.5
58.5,-65.5
58.5,-64.5
58.5,-63.5
59.5,-161.5
59.5,-160.5
59.5,-159.5
59.5,-158.5
59.5,-157.5
59.5,-156.5
59.5,-155.5
59.5,-154.5
59.5,-150.5
59.5,-138.5
59.5,-137.5
59.5,-136.5
59.5,-135.5
59.5,-134.5
59.5,-133.5
59.5,-132.5
59.5,-131.5
59.5,-130.5
59.5,-129.5
59.5,-128.5
59.5,-127.5
59.5,-126.5
59.5,-125.5
59.5,-124.5
59.5,-123.5
59.5,-122.5
59.5,-121.5
59.5,-120.5
59.5,-119.5
59.5,-118.5
59.5,-117.5
59.5,-116.5
59.5,-115.5
59.5,-114.5
59.5,-113.5
59.5,-112.5
59.5,-111.5
59.5,-110.5
59.5,-108.5
59.5,-107.5
59.5,-106.5
59.5,-105.5
59.5,-104.5
59.5,-103.5
59.5,-102.5
59.5,-101.5
59.5,-100.5
59.5,-99.5
59.5,-98.5
59.5,-97.5
59.5,-96.5
59.5,-95.5
59.5,-77.5
59.5,-76.5
59.5,-75.5
59.5,-74.5
59.5,-73.5
59.5,-72.5
59.5,-71.5
59.5,-70.5
59.5,-64.5
60.5,-163.5
60.5,-162.5
60.5,-161.5
60.5,-160.5
60.5,-159.5
60.5,-158.5
60.5,-157.5
60.5,-156.5
60.5,-155.5
60.5,-154.5
60.5,-153.5
60.5,-152.5
60.5,-150.5
60.5,-149.5
60.5,-148.5
60.5,-145.5
60.5,-144.5
60.5,-143.5
60.5,-142.5
60.5,-141.5
60.5,-140.5
60.5,-139.5
60.5,-138.5
60.5,-137.5
60.5,-136.5
60.5,-135.5
60.5,-134.5
60.5,-133.5
60.5,-132.5
60.5,-131.5
60.5,-130.5
60.5,-129.5
60.5,-128.5
60.5,-127.5
60.5,-126.5
60.5,-125.5
60.5,-124.5
60.5,-123.5
60.5,-122.5
60.5,-121.5
60.5,-120.5
60.5,-119.5
60.5,-118.5
60.5,-117.5
60.5,-116.5
60.5,-115.5
60.5,-114.5
60.5,-113.5
60.5,-112.5
60.5,-111.5
60.5,-110.5
60.5,-109.5
60.5,-108.5
60.5,-107.5
60.5,-106.5
60.5,-105.5
60.5,-104.5
60.5,-103.5
60.5,-102.5
60.5,-101.5
60.5,-100.5
60.5,-99.5
60.5,-98.5
60.5,-97.5
60.5,-96.5
60.5,-95.5
60.5,-77.5
60.5,-76.5
60.5,-75.5
60.5,-74.5
60.5,-73.5
60.5,-72.5
60.5,-71.5
60.5,-70.5
61.5,-165.5
61.5,-164.5
61.5,-163.5
61.5,-162.5
61.5,-161.5
61.5,-160.5
61.5,-159.5
61.5,-158.5
61.5,-157.5
61.5,-156.5
61.5,-155.5
61.5,-154.5
61.5,-153.5
61.5,-152.5
61.5,-151.5
61.5,-150.5
61.5,-149.5
61.5,-148.5
61.5,-147.5
61.5,-146.5
61.5,-145.5
61.5,-144.5
61.5,-143.5
61.5,-142.5
61.5,-141.5
61.5,-140.5
61.5,-139.5
61.5,-138.5
61.5,-137.5
61.5,-136.5
61.5,-135.5
61.5,-134.5
61.5,-133.5
61.5,-132.5
61.5,-131.5
61.5,-130.5
61.5,-129.5
61.5,-128.5
61.5,-127.5
61.5,-126.5
61.5,-125.5
61.5,-124.5
61.5,-123.5
61.5,-122.5
61.5,-121.5
61.5,-120.5
61.5,-119.5
61.5,-118.5
61.5,-117.5
61.5,-116.5
61.5,-112.5
61.5,-111.5
61.5,-110.5
61.5,-109.5
61.5,-108.5
61.5,-107.5
61.5,-106.5
61.5,-105.5
61.5,-104.5
61.5,-103.5
61.5,-102.5
61.5,-101.5
61.5,-100.5
61.5,-99.5
61.5,-98.5
61.5,-97.5
61.5,-96.5
61.5,-95.5
61.5,-94.5
61.5,-77.5
61.5,-76.5
61.5,-75.5
61.5,-74.5
61.5,-73.5
61.5,-72.5
62.5,-164.5
62.5,-163.5
62.5,-162.5
62.5,-161.5
62.5,-160.5
62.5,-159.5
62.5,-158.5
62.5,-157.5
62.5,-156.5
62.5,-155.5
62.5,-154.5
62.5,-153.5
62.5,-152.5
62.5,-151.5
62.5,-150.5
62.5,-149.5
62.5,-148.5
62.5,-147.5
62.5,-146.5
62.5,-145.5
62.5,-144.5
62.5,-143.5
62.5,-142.5
62.5,-141.5
62.5,-140.5
62.5,-139.5
62.5,-138.5
62.5,-137.5
62.5,-136.5
62.5,-135.5
62.5,-134.5
62.5,-133.5
62.5,-132.5
62.5,-131.5
62.5,-130.5
62.5,-129.5
62.5,-128.5
62.5,-127.5
62.5,-126.5
62.5,-125.5
62.5,-124.5
62.5,-123.5
62.5,-122.5
62.5,-121.5
62.5,-120.5
62.5,-119.5
62.5,-118.5
62.5,-117.5
62.5,-116.5
62.5,-113.5
62.5,-112.5
62.5,-111.5
62.5,-110.5
62.5,-109.5
62.5,-108.5
62.5,-107.5
62.5,-106.5
62.5,-105.5
62.5,-104.5
62.5,-103.5
62.5,-101.5
62.5,-100.5
62.5,-99.5
62.5,-98.5
62.5,-97.5
62.5,-96.5
62.5,-95.5
62.5,-94.5
62.5,-93.5
62.5,-68.5
62.5,-67.5
63.5,-160.5
63.5,-159.5
63.5,-158.5
63.5,-157.5
63.5,-156.5
63.5,-155.5
63.5,-154.5
63.5,-153.5
63.5,-152.5
63.5,-151.5
63.5,-150.5
63.5,-149.5
63.5,-148.5
63.5,-147.5
63.5,-146.5
63.5,-145.5
63.5,-144.5
63.5,-143.5
63.5,-142.5
63.5,-141.5
63.5,-140.5
63.5,-139.5
63.5,-138.5
63.5,-137.5
63.5,-136.5
63.5,-135.5
63.5,-134.5
63.5,-133.5
63.5,-132.5
63.5,-131.5
63.5,-130.5
63.5,-129.5
63.5,-128.5
63.5,-127.5
63.5,-126.5
63.5,-125.5
63.5,-124.5
63.5,-123.5
63.5,-122.5
63.5,-121.5
63.5,-120.5
63.5,-119.5
63.5,-118.5
63.5,-117.5
63.5,-116.5
63.5,-114.5
63.5,-113.5
63.5,-112.5
63.5,-111.5
63.5,-110.5
63.5,-109.5
63.5,-108.5
63.5,-107.5
63.5,-106.5
63.5,-105.5
63.5,-104.5
63.5,-103.5
63.5,-102.5
63.5,-101.5
63.5,-100.5
63.5,-99.5
63.5,-98.5
63.5,-97.5
63.5,-96.5
63.5,-95.5
63.5,-94.5
63.5,-93.5
63.5,-92.5
63.5,-91.5
63.5,-85.5
63.5,-84.5
63.5,-71.5
63.5,-70.5
63.5,-69.5
63.5,-68.5
63.5,-67.5
63.5,-66.5
63.5,-65.5
64.5,-160.5
64.5,-159.5
64.5,-158.5
64.5,-157.5
64.5,-156.5
64.5,-155.5
64.5,-154.5
64.5,-153.5
64.5,-152.5
64.5,-151.5
64.5,-150.5
64.5,-149.5
64.5,-148.5
64.5,-147.5
64.5,-146.5
64.5,-145.5
64.5,-144.5
64.5,-143.5
64.5,-142.5
64.5,-141.5
64.5,-140.5
64.5,-139.5
64.5,-138.5
64.5,-137.5
64.5,-136.5
64.5,-135.5
64.5,-134.5
64.5,-133.5
64.5,-132.5
64.5,-131.5
64.5,-130.5
64.5,-129.5
64.5,-128.5
64.5,-127.5
64.5,-126.5
64.5,-125.5
64.5,-124.5
64.5,-123.5
64.5,-122.5
64.5,-121.5
64.5,-120.5
64.5,-119.5
64.5,-118.5
64.5,-117.5
64.5,-116.5
64.5,-115.5
64.5,-114.5
64.5,-113.5
64.5,-112.5
64.5,-111.5
64.5,-110.5
64.5,-109.5
64.5,-108.5
64.5,-107.5
64.5,-106.5
64.5,-105.5
64.5,-104.5
64.5,-103.5
64.5,-102.5
64.5,-101.5
64.5,-100.5
64.5,-99.5
64.5,-98.5
64.5,-96.5
64.5,-95.5
64.5,-94.5
64.5,-93.5
64.5,-92.5
64.5,-91.5
64.5,-90.5
64.5,-89.5
64.5,-88.5
64.5,-85.5
64.5,-84.5
64.5,-83.5
64.5,-82.5
64.5,-76.5
64.5,-72.5
64.5,-71.5
64.5,-70.5
64.5,-69.5
64.5,-68.5
64.5,-67.5
64.5,-66.5
64.5,-65.5
65.5,-166.5
65.5,-165.5
65.5,-164.5
65.5,-163.5
65.5,-162.5
65.5,-161.5
65.5,-160.5
65.5,-159.5
65.5,-158.5
65.5,-157.5
65.5,-156.5
65.5,-155.5
65.5,-154.5
65.5,-153.5
65.5,-152.5
65.5,-151.5
65.5,-150.5
65.5,-149.5
65.5,-148.5
65.5,-147.5
65.5,-146.5
65.5,-145.5
65.5,-144.5
65.5,-143.5
65.5,-142.5
65.5,-141.5
65.5,-140.5
65.5,-139.5
65.5,-138.5
65.5,-137.5
65.5,-136.5
65.5,-135.5
65.5,-134.5
65.5,-133.5
65.5,-132.5
65.5,-131.5
65.5,-130.5
65.5,-129.5
65.5,-128.5
65.5,-127.5
65.5,-126.5
65.5,-125.5
65.5,-124.5
65.5,-123.5
65.5,-119.5
65.5,-118.5
65.5,-117.5
65.5,-116.5
65.5,-115.5
65.5,-114.5
65.5,-113.5
65.5,-112.5
65.5,-111.5
65.5,-110.5
65.5,-109.5
65.5,-108.5
65.5,-107.5
65.5,-106.5
65.5,-105.5
65.5,-104.5
65.5,-103.5
65.5,-102.5
65.5,-101.5
65.5,-100.5
65.5,-99.5
65.5,-98.5
65.5,-97.5
65.5,-96.5
65.5,-95.5
65.5,-94.5
65.5,-93.5
65.5,-92.5
65.5,-91.5
65.5,-90.5
65.5,-89.5
65.5,-88.5
65.5,-87.5
65.5,-73.5
65.5,-72.5
65.5,-71.5
65.5,-70.5
65.5,-69.5
65.5,-68.5
65.5,-67.5
65.5,-64.5
65.5,-63.5
66.5,-164.5
66.5,-161.5
66.5,-160.5
66.5,-159.5
66.5,-158.5
66.5,-157.5
66.5,-156.5
66.5,-155.5
66.5,-154.5
66.5,-153.5
66.5,-152.5
66.5,-151.5
66.5,-150.5
66.5,-149.5
66.5,-148.5
66.5,-147.5
66.5,-146.5
66.5,-145.5
66.5,-144.5
66.5,-143.5
66.5,-142.5
66.5,-141.5
66.5,-140.5
66.5,-139.5
66.5,-138.5
66.5,-137.5
66.5,-136.5
66.5,-135.5
66.5,-134.5
66.5,-133.5
66.5,-132.5
66.5,-131.5
66.5,-130.5
66.5,-129.5
66.5,-128.5
66.5,-127.5
66.5,-126.5
66.5,-125.5
66.5,-124.5
66.5,-123.5
66.5,-122.5
66.5,-118.5
66.5,-117.5
66.5,-116.5
66.5,-115.5
66.5,-114.5
66.5,-113.5
66.5,-112.5
66.5,-111.5
66.5,-110.5
66.5,-109.5
66.5,-108.5
66.5,-107.5
66.5,-106.5
66.5,-105.5
66.5,-104.5
66.5,-103.5
66.5,-102.5
66.5,-101.5
66.5,-100.5
66.5,-99.5
66.5,-98.5
66.5,-97.5
66.5,-96.5
66.5,-95.5
66.5,-94.5
66.5,-93.5
66.5,-92.5
66.5,-91.5
66.5,-90.5
66.5,-89.5
66.5,-88.5
66.5,-87.5
66.5,-86.5
66.5,-84.5
66.5,-83.5
66.5,-72.5
66.5,-71.5
66.5,-69.5
66.5,-68.5
66.5,-67.5
66.5,-66.5
66.5,-65.5
66.5,-64.5
66.5,-63.5
66.5,-62.5
67.5,-163.5
67.5,-162.5
67.5,-161.5
67.5,-160.5
67.5,-159.5
67.5,-158.5
67.5,-157.5
67.5,-156.5
67.5,-155.5
67.5,-154.5
67.5,-153.5
67.5,-152.5
67.5,-151.5
67.5,-150.5
67.5,-149.5
67.5,-148.5
67.5,-147.5
67.5,-146.5
67.5,-145.5
67.5,-144.5
67.5,-143.5
67.5,-142.5
67.5,-141.5
67.5,-140.5
67.5,-139.5
67.5,-138.5
67.5,-137.5
67.5,-136.5
67.5,-135.5
67.5,-134.5
67.5,-133.5
67.5,-132.5
67.5,-131.5
67.5,-130.5
67.5,-129.5
67.5,-128.5
67.5,-127.5
67.5,-126.5
67.5,-125.5
67.5,-124.5
67.5,-123.5
67.5,-122.5
67.5,-121.5
67.5,-120.5
67.5,-119.5
67.5,-118.5
67.5,-117.5
67.5,-116.5
67.5,-115.5
67.5,-114.5
67.5,-112.5
67.5,-111.5
67.5,-110.5
67.5,-109.5
67.5,-107.5
67.5,-106.5
67.5,-105.5
67.5,-104.5
67.5,-103.5
67.5,-102.5
67.5,-101.5
67.5,-100.5
67.5,-99.5
67.5,-98.5
67.5,-97.5
67.5,-96.5
67.5,-94.5
67.5,-93.5
67.5,-92.5
67.5,-91.5
67.5,-90.5
67.5,-89.5
67.5,-88.5
67.5,-86.5
67.5,-85.5
67.5,-84.5
67.5,-83.5
67.5,-82.5
67.5,-76.5
67.5,-75.5
67.5,-71.5
67.5,-70.5
67.5,-69.5
67.5,-68.5
67.5,-67.5
67.5,-66.5
67.5,-65.5
67.5,-64.5
68.5,-165.5
68.5,-164.5
68.5,-163.5
68.5,-162.5
68.5,-161.5
68.5,-160.5
68.5,-159.5
68.5,-158.5
68.5,-157.5
68.5,-156.5
68.5,-155.5
68.5,-154.5
68.5,-153.5
68.5,-152.5
68.5,-151.5
68.5,-150.5
68.5,-149.5
68.5,-148.5
68.5,-147.5
68.5,-146.5
68.5,-145.5
68.5,-144.5
68.5,-143.5
68.5,-142.5
68.5,-141.5
68.5,-140.5
68.5,-139.5
68.5,-138.5
68.5,-137.5
68.5,-136.5
68.5,-135.5
68.5,-134.5
68.5,-133.5
68.5,-132.5
68.5,-131.5
68.5,-130.5
68.5,-129.5
68.5,-128.5
68.5,-127.5
68.5,-126.5
68.5,-125.5
68.5,-124.5
68.5,-123.5
68.5,-122.5
68.5,-121.5
68.5,-120.5
68.5,-119.5
68.5,-118.5
68.5,-117.5
68.5,-116.5
68.5,-115.5
68.5,-106.5
68.5,-105.5
68.5,-97.5
68.5,-96.5
68.5,-93.5
68.5,-92.5
68.5,-91.5
68.5,-90.5
68.5,-89.5
68.5,-88.5
68.5,-85.5
68.5,-84.5
68.5,-83.5
68.5,-82.5
68.5,-72.5
68.5,-71.5
68.5,-70.5
68.5,-69.5
68.5,-68.5
69.5,-162.5
69.5,-161.5
69.5,-160.5
69.5,-159.5
69.5,-158.5
69.5,-157.5
69.5,-156.5
69.5,-155.5
69.5,-154.5
69.5,-153.5
69.5,-152.5
69.5,-151.5
69.5,-150.5
69.5,-149.5
69.5,-148.5
69.5,-147.5
69.5,-146.5
69.5,-145.5
69.5,-144.5
69.5,-143.5
69.5,-142.5
69.5,-141.5
69.5,-140.5
69.5,-139.5
69.5,-131.5
69.5,-130.5
69.5,-128.5
69.5,-127.5
69.5,-126.5
69.5,-122.5
69.5,-121.5
69.5,-116.5
69.5,-114.5
69.5,-113.5
69.5,-112.5
69.5,-111.5
69.5,-110.5
69.5,-109.5
69.5,-108.5
69.5,-107.5
69.5,-104.5
69.5,-103.5
69.5,-102.5
69.5,-97.5
69.5,-93.5
69.5,-92.5
69.5,-91.5
69.5,-84.5
69.5,-83.5
69.5,-82.5
69.5,-76.5
69.5,-75.5
69.5,-74.5
69.5,-73.5
69.5,-72.5
69.5,-71.5
69.5,-70.5
69.5,-69.5
69.5,-68.5
69.5,-67.5
