n_obs,model,r2,rss,bic,rmse,pearson_corr,beta_0,beta_1,beta_0.se,beta_1.se
39317,mstmip-v2.BIOME-BGC::NEE,0.2671021,1151548.3717528,244379.569157,5.4120519,0.5161385,0.0137337,0.7428565,0.004751,0.0063562
39317,mstmip-v2.CLASS-CTEM-N::NEE,0.2573178,1166921.7381552,244900.9849846,5.448058,0.5067841,0.0087922,0.8217786,0.0047948,0.0072183
39317,mstmip-v2.CLM4VIC::NEE,0.2777616,1134799.9129103,243803.5318666,5.3725505,0.5270772,0.0527045,0.9252729,0.0046625,0.0076998
39317,mstmip-v2.CLM4::NEE,0.3127311,1079854.9669069,241852.2446871,5.2408723,0.5588831,0.0142183,0.8687926,0.0045871,0.0066291
39317,mstmip-v2.DLEM::NEE,0.3269169,1057565.8147536,241032.2148918,5.1865021,0.5732976,0.0682548,0.9986735,0.0044845,0.0073691
39317,mstmip-v2.GTEC::NEE,0.3477868,1024774.5001362,239793.8364262,5.1054616,0.5894332,0.002259,0.5571002,0.0044761,0.0039186
39317,mstmip-v2.ISAM::NEE,0.3349017,1045019.8746638,240563.007303,5.1556465,0.5778601,0.0867103,1.0105676,0.004448,0.0073201
39317,mstmip-v2.JPL-HYLAND::NEE,0.0522457,1489136.4140472,254487.5341085,6.1544338,0.2561887,0.104351,0.5927218,0.0053168,0.0145936
39317,mstmip-v2.LPJ-wsl::NEE,0.2411466,1192330.4181314,245747.8903861,5.5070519,0.4911368,0.0082091,0.6659609,0.0048551,0.0061185
39317,mstmip-v2.ORCHIDEE-LSCE::NEE,0.2339846,1203583.488936,246117.2193815,5.5329783,0.4846297,0.02265,0.6000461,0.0048541,0.0056277
39317,mstmip-v2.SiB3::NEE,0.3479781,1024473.9243174,239782.3026957,5.1047128,0.589661,0.0263016,0.7423199,0.0044471,0.0052191
39317,mstmip-v2.SiBCASA::NEE,0.39651,948219.3060599,236741.183691,4.9110602,0.6300104,0.0302083,0.8266473,0.004269,0.0052263
39317,mstmip-v2.TEM6::NEE,0.3797103,974615.4779889,237820.718449,4.9789471,0.6160916,0.0664322,1.0070736,0.0043037,0.006601
39317,mstmip-v2.TRIPLEX-GHG::NEE,0.3101706,1083878.0169037,241998.4498244,5.2506257,0.5594533,0.1057044,0.9418752,0.0045245,0.0072311
39317,mstmip-v2.VEGAS2.1::NEE,0.4272005,899997.6035294,234689.083578,4.7845548,0.6530347,0.0252462,1.0218442,0.0041602,0.0060566
39317,mstmip-v2.VISIT::NEE,0.2345503,1202694.6018119,246088.1717192,5.5309348,0.4876083,0.0762002,0.8573462,0.0047827,0.0080277
39317,trendy-v6.CABLE::NEE,0.2673782,1151114.5417588,244364.7542277,5.4110323,0.5195449,0.06291,0.8592745,0.0046873,0.007347
39317,trendy-v6.CLASS-CTEM::NEE,0.2500964,1178268.1624256,245281.4325073,5.4744807,0.5032282,0.0488365,0.949627,0.0047596,0.0085082
39317,trendy-v6.CLM4.5::NEE,0.327138,1057218.3825036,241019.2963217,5.1856501,0.5720596,0.0428313,0.900932,0.0045038,0.0066444
39317,trendy-v6.DLEM::NEE,0.3539922,1015024.4079104,239417.9686933,5.0811159,0.5955056,0.0685575,1.0839648,0.0043919,0.0075189
39317,trendy-v6.ISAM::NEE,0.3201283,1068232.2141461,241426.7719839,5.2125915,0.5664742,0.2035185,1.0931423,0.0045331,0.0081957
39317,trendy-v6.JULES::NEE,0.3307759,1051502.3735209,240806.1463587,5.1716126,0.575372,0.0503004,0.9563439,0.0044846,0.0069937
39317,trendy-v6.LPJ-wsl::NEE,0.2780729,1134310.7303738,243786.579683,5.3713924,0.5298758,0.1606621,0.8011749,0.0046391,0.0066617
39317,trendy-v6.OCN::NEE,0.3145817,1076947.1480028,241746.2295972,5.2338112,0.5602496,-0.0282606,0.8505197,0.0046483,0.0064611
39317,trendy-v6.ORCHIDEE-MICT::NEE,0.4015277,940335.3920962,236412.918223,4.8906012,0.6351134,0.150062,0.9904207,0.004217,0.0061953
39317,trendy-v6.ORCHIDEE::NEE,0.3945584,951285.6871519,236868.123089,4.9189945,0.6291059,0.1172346,0.8225412,0.0042374,0.005222
39317,trendy-v6.SDGVM::NEE,0.3451321,1028945.6397869,239953.5436034,5.1158414,0.5877455,0.1518603,0.8821126,0.0044125,0.006242
39317,trendy-v6.VEGAS::NEE,0.4476263,867903.9916979,233261.4439644,4.6984726,0.6684519,0.0079389,1.0850292,0.0040978,0.0061654
39317,trendy-v6.VISIT::NEE,0.3220051,1065283.3345144,241318.0864162,5.2053918,0.5670364,0.3500006,1.1626297,0.0047998,0.0086782
39317,FluxCom-ANN::NEE,0.3650434,997660.4907721,238739.557414,5.0374674,0.6043094,0.045861,0.9633271,0.0043689,0.00652
39317,FluxCom-MARS::NEE,0.3735157,984348.6207328,238211.4158819,5.0037468,0.6107933,0.0423861,0.983126,0.0043416,0.0065315
39317,FluxCom-RF::NEE,0.3651908,997428.8044345,238730.4257809,5.0368824,0.604636,0.0518221,0.963826,0.0043638,0.0065213
