model,biome_id,biome_label,n_obs,bic,tss,llf,r2,beta_0,se_beta_0,p_beta_0,beta_1,se_beta_1,p_beta_1,beta_2,se_beta_2,p_beta_2,e_act_J,se_e_act_J,e_act_eV,se_e_act_eV
mstmip-v2.BIOME-BGC,-1,NA,118632,392374.8857250633,254705.08493954656,-196169.9171902162,0.2552870523672123,14.266853431216289,0.0697464243079008,0.0,-3799.507159031029,19.242241708004013,0.0,-0.0028727242445942,6.108904243256626e-05,0.0,31590.860240586877,159.98889936771985,0.3274161942067337,0.0016581680950556
mstmip-v2.BIOME-BGC,1,CRO,14784,18490.436125589786,5960.793998108868,-9230.81611160407,0.4937768272264695,10.600761076632098,0.0835512154810775,0.0,-2843.632923147617,23.682547532156445,0.0,-0.0001985567599566,7.463164737155409e-05,0.0078111262590514,23643.279638824926,196.9076561551229,0.2450453257351944,0.0020408040457742
mstmip-v2.BIOME-BGC,3,ENF,25152,8622.29435980555,10544.429871564897,-4295.948140859931,0.8034696617817761,14.149816549318937,0.0404540582268575,0.0,-3538.9254093443096,11.112192244728302,0.0,0.0003198421902386,3.0269697999113e-05,4.8363974704669726e-26,29424.26302388361,92.39190702282298,0.3049609964163139,0.0009575746384408
mstmip-v2.BIOME-BGC,4,DBMF,15936,9945.755094341006,5987.301826226558,-4958.363043200767,0.709645506567306,12.775313511276623,0.0590245265832097,0.0,-3182.1288456500547,16.47325836618372,0.0,0.0004834458272473,5.203902706154945e-05,1.737076322387538e-20,26457.691332816878,136.9662908822903,0.2742146474554646,0.0014195555725221
mstmip-v2.CLASS-CTEM-N,-1,NA,117418,359049.6842215448,319222.0414133676,-179507.3318675275,0.5417984006267155,22.78163420828388,0.0618971326411296,0.0,-6332.34933949592,17.071505335667684,0.0,-0.0025347584884343,5.423309309448733e-05,0.0,52650.08186735582,141.9403929463965,0.5456796458975552,0.0014711085076122
mstmip-v2.CLASS-CTEM-N,1,CRO,14206,49111.351134164186,34951.20753635559,-24541.33343754776,0.2465553531992627,17.414560208437344,0.2559217562775514,0.0,-4735.800724061941,72.4640993989094,0.0,0.0043414884455088,0.0002292500322238,5.226019827184709e-79,39375.63808651034,602.5000455992684,0.4080997310159803,0.006244472940501
mstmip-v2.CLASS-CTEM-N,3,ENF,25152,56539.23182366993,29838.18789979758,-28254.41687279212,0.5332844197929717,17.78045178520016,0.1048692385986726,0.0,-4874.389950429478,28.80618634926145,0.0,-0.0003159060229671,7.846827539471129e-05,5.692228644874712e-05,40527.93302840077,239.50795956807625,0.4200424265172796,0.0024823250777846
mstmip-v2.CLASS-CTEM-N,4,DBMF,15746,37404.35944705953,20265.610134801973,-18687.683211064148,0.5115773204832483,18.720583462909783,0.1426920885762251,0.0,-5103.0446976842695,39.80531604724824,0.0,-0.0016934005824351,0.0001255346412453,3.0556130316711287e-41,42429.07437687897,330.95981227252105,0.4397463681075776,0.0034301567397783
mstmip-v2.CLM4VIC,-1,NA,108067,536022.2845637348,997117.2139258632,-267993.7565218412,0.0953648290441794,17.103834912754564,0.1795760695441905,0.0,-5062.709185000165,49.87957524884612,0.0,-0.0064655206261838,0.0001513374211966,0.0,42093.70626448912,414.7218638082492,0.4362705225566576,0.0042982892288563
mstmip-v2.CLM4VIC,1,CRO,14784,39906.56325905096,24949.221955700585,-19938.87967833466,0.4851166584483135,20.43018464803007,0.1723902219473,0.0,-5737.41892490167,48.86391660299137,0.0,-0.0021802416096687,0.0001539865839245,3.260869628076577e-45,47703.555174900685,406.27720796464126,0.4944125093950516,0.0042107665385388
mstmip-v2.CLM4VIC,3,ENF,25152,56741.92893878869,23606.190352898197,-28355.7654303515,0.4052988631812674,14.19333611844782,0.1052926557429637,0.0,-3783.307620721326,28.922493412466125,0.0,-0.0012808319290134,7.878509673840606e-05,3.973083965184535e-59,31456.16978488199,240.47499029730085,0.3260202260036834,0.0024923476450282
mstmip-v2.CLM4VIC,4,DBMF,15936,36600.81946686388,16076.230183101416,-18285.895229462203,0.4240426064308998,15.412737646059654,0.1362197087967864,0.0,-4117.551387802964,38.017796795241054,0.0,-0.0021252752144433,0.000120098229037,2.0707620492094995e-69,34235.22709158177,316.097550272752,0.3548231253205257,0.0032761202487106
mstmip-v2.CLM4,-1,NA,116015,519664.0147540339,942678.4561131952,-259814.51516485884,0.3648546384217226,31.62730736686662,0.1295897982679953,0.0,-8945.041272058541,35.83335838313882,0.0,-0.0085698269781675,0.0001114270540736,0.0,74373.21127299791,297.9351187540047,0.7708240168355082,0.0030878799108369
mstmip-v2.CLM4,1,CRO,14784,30371.602909279733,17944.47403645911,-15171.399503449044,0.6243907198587135,20.324731218559243,0.1248714712358706,0.0,-5520.529834157463,35.394752020376885,0.0,-0.0020888802512169,0.0001115407304894,2.317346426645808e-77,45900.238937655966,294.2883425468036,0.4757224536367312,0.0030500837388495
mstmip-v2.CLM4,3,ENF,25152,51411.96240060234,21397.04003197168,-25690.782161258325,0.4691894777736933,14.74851410283923,0.0947070598519798,0.0,-3878.4757766868233,26.01477088173805,0.0,-0.0007726892068149,7.08644379762153e-05,1.2751073904562384e-27,32247.44186008111,216.29884001204596,0.3342211831625173,0.0022417795042215
mstmip-v2.CLM4,4,DBMF,15933,41015.23604072707,19988.244184593077,-20493.103798799897,0.388731519551777,16.55964359664006,0.156529472026908,0.0,-4396.811332199369,43.68669059448283,0.0,-0.0020419886726793,0.0001380059343272,3.2795735364578038e-49,36557.12345997043,363.2313558519597,0.3788878853964016,0.0037646277196594
mstmip-v2.DLEM,-1,NA,112303,438612.0063595586,900407.6514286402,-219288.5597459975,0.6373155823638731,44.22199008651577,0.1033127320008835,0.0,-12657.36553998251,28.647513736827072,0.0,-0.0070581597776625,8.566235874449451e-05,0.0,105239.19262454596,238.18868206349015,1.0907273707681118,0.0024686517299757
mstmip-v2.DLEM,1,CRO,14784,38910.03682128488,42582.729425885744,-19440.616459451616,0.7179939585485642,31.92839171588958,0.1666769937168236,0.0,-9047.659181889543,47.24450510369415,0.0,-0.005173373022443,0.0001488832753467,2.2403021581929635e-254,75226.42404822508,392.8126715905752,0.7796669441121302,0.0040712164527614
mstmip-v2.DLEM,3,ENF,25026,58352.18088033236,108967.89731609264,-29160.89893432104,0.861732747208379,42.635725891484405,0.1105866115433949,0.0,-11999.017173466382,30.39247111174448,0.0,-0.0036539327544282,8.197912735978011e-05,0.0,99765.37974152624,252.6970649272444,1.0339952980005735,0.0026190205222519
mstmip-v2.DLEM,4,DBMF,15869,32936.91891881179,53963.30510126373,-16453.95127520655,0.8630434167234385,38.89499313610168,0.1239181395365659,0.0,-10942.136614849023,34.6053739601922,0.0,-0.0057245814864922,0.0001078620901852,0.0,90977.98584521128,287.72508817392867,0.9429203780833728,0.0029820604007064
mstmip-v2.GTEC,-1,NA,109748,248398.6396539288,120649.33468921317,-124181.9109138031,0.488056584681546,14.995729919447632,0.0442311526443056,0.0,-3958.558816048628,12.251915603831398,0.0,-0.0014293471152141,3.8825833704448354e-05,6.951696180270436e-295,32913.289297190655,101.86809428694706,0.3411222055506517,0.0010557883985594
mstmip-v2.GTEC,1,CRO,14784,16677.249704585727,6228.15243748767,-8324.22290110204,0.5714290066413519,12.127853690093168,0.0785815713054624,0.0,-3071.6463893245023,22.27390453720728,0.0,-0.0020367353512616,7.019254101575727e-05,4.372284841900014e-180,25539.08907975325,185.1955466315105,0.2646940059978632,0.0019194165844278
mstmip-v2.GTEC,3,ENF,25152,3805.0004579716974,11053.948060456092,-1887.3011899430055,0.8452053138089064,14.518542418247248,0.0367597438881756,0.0,-3704.549682547902,10.097413185636633,0.0,0.0005854767507082,2.750543195889026e-05,1.1635220615354665e-99,30801.3398520683,83.95456447047607,0.3192333920010103,0.000870127745046
mstmip-v2.GTEC,4,DBMF,15936,6995.991294696779,8092.919382746473,-3483.4811433786526,0.8214884575449019,15.222780101756896,0.0538069554519921,0.0,-3926.251094167789,15.0170773129173,0.0,0.0013396786017902,4.743895077105648e-05,3.0244502002002517e-171,32644.66795133968,124.8589279498668,0.3383381414868241,0.0012940715982642
mstmip-v2.ISAM,-1,NA,116016,308058.0143819037,256412.9103358928,-154011.51496586442,0.6231595119709461,21.786899572416356,0.0508561917587878,0.0,-6150.495763026707,14.044417771907016,0.0,-0.0003358201785279,4.50669138207375e-05,9.285832974677871e-14,51138.06710385295,116.77178655609572,0.5300087171643619,0.0012102542841108
mstmip-v2.ISAM,1,CRO,14784,15900.897312948184,22888.87100944393,-7936.04670528327,0.8893499731550567,26.386061227565225,0.07654514545449,0.0,-7448.860832847313,21.696680714266154,0.0,0.0016239195946206,6.837351522261956e-05,2.095197200625404e-122,61933.27494139333,180.39624073344748,0.6418931621880254,0.0018696752839374
mstmip-v2.ISAM,3,ENF,25104,35239.2061547671,57367.288140659766,-17604.40690367109,0.8958378064359145,31.300185078465887,0.0687768304535605,0.0,-8635.054991239864,18.89264759014833,0.0,0.0023286710542551,5.1556611664591934e-05,0.0,71795.84192903817,157.0822121433361,0.7441114659509258,0.0016280424048557
mstmip-v2.ISAM,4,DBMF,15840,21565.737351677693,28940.81924636307,-10768.363235340794,0.8751884009956402,27.917431752147017,0.0855105011668111,0.0,-7721.993695337452,23.867259227588256,0.0,0.0021148403692568,7.55647939308726e-05,2.8219728523788304e-168,64204.22791631493,198.4434346418981,0.6654299311968036,0.0020567212681434
mstmip-v2.JPL-HYLAND,-1,NA,108470,607711.2610109106,2508137.7951504285,-303838.23916208127,0.3137034061957503,46.85071874333371,0.2358208258736566,0.0,-13942.829059997868,65.42954875470086,0.0,-0.0144028974366264,0.0002110111176533,0.0,115927.13100851636,544.0115372335688,1.201500046249096,0.0056382822680064
mstmip-v2.JPL-HYLAND,1,CRO,14782,71184.60253797522,159820.53008369033,-35577.89952073259,0.3329162021820673,40.48461271616555,0.4967674483762619,0.0,-11964.963379133746,140.80996563758427,0.0,-0.0062755974516106,0.0004436461261359,3.9216729795126394e-45,99482.2407415465,1170.759195535559,1.031060769054579,0.0121340640050791
mstmip-v2.JPL-HYLAND,3,ENF,25056,87230.21191536292,111339.46130600668,-43599.91265478327,0.5722216625840376,35.05072290531495,0.1947897415738813,0.0,-9774.865567080977,53.51479355323448,0.0,-0.0003732859761362,0.0001457135724761,0.0104195519391876,81272.75435347015,444.9467505083555,0.8423327418265203,0.0046115481049462
mstmip-v2.JPL-HYLAND,4,DBMF,15775,77308.87027736811,169149.91582568732,-38639.93586615294,0.2675451197301574,37.64691183071479,0.5078796677195,0.0,-10741.902874869244,141.83094847763238,0.0,-0.0029121190182109,0.0004442753380901,5.7459853660682894e-11,89313.14989928706,1179.2481191927584,0.925665569406376,0.0122220454989537
mstmip-v2.LPJ-wsl,-1,NA,117456,396860.3980314405,445657.4366512156,-198412.6882871087,0.5474520071500457,27.226589948631897,0.0732208802553735,0.0,-7546.813058848015,20.22227963564345,0.0,-0.0043268738481073,6.398778980422217e-05,0.0,62747.69506282606,168.13738808130012,0.65033403194004,0.0017426212293741
mstmip-v2.LPJ-wsl,1,CRO,14784,23353.805099704303,13673.73883871298,-11662.500598661329,0.6933626300287604,18.96810649648941,0.0984885823146524,0.0,-5098.12692356198,27.916536206103537,0.0,0.0004288036191414,8.797436522148638e-05,1.1039086741673104e-06,42388.18572777543,232.11099670969145,0.4393225871223882,0.002405660960083
mstmip-v2.LPJ-wsl,3,ENF,25152,34736.316636820855,62868.060240561856,-17352.959279367584,0.9069046114026952,33.9819313311809,0.067985274893849,0.0,-9231.677703079533,18.67465163061429,0.0,-0.0008399579293449,5.086989611482905e-05,6.309219620396583e-61,76756.43916367888,155.2696928869153,0.7955244333468506,0.001609256966525
mstmip-v2.LPJ-wsl,4,DBMF,15936,21972.10460241868,30483.485377489204,-10971.537797239602,0.8787052099314059,29.9106706117105,0.0860807505391903,0.0,-8135.518981347714,24.024427235143065,0.0,-0.0020094743599828,7.58931712984154e-05,3.2146979895069566e-151,67642.46844844501,199.7502021654581,0.7010647832148902,0.0020702649591356
mstmip-v2.ORCHIDEE-LSCE,-1,NA,113952,310162.6926801571,265524.79534199415,-155063.88104119943,0.617965018156142,22.611620985965786,0.0529577165945351,0.0,-6278.96860879456,14.62531581155713,0.0,-0.000837438117204,4.6938004202034943e-05,4.217412679060583e-71,52206.24977741784,121.6016415916361,0.5410796504353356,0.0012603122040998
mstmip-v2.ORCHIDEE-LSCE,1,CRO,14784,23417.8948879774,18611.158735648823,-11694.545492797875,0.7737327757151846,22.27539305746709,0.0987022916696148,0.0,-6135.901276084488,27.97711200895479,0.0,0.0039732773324672,8.816525988564803e-05,0.0,51016.72178774297,232.61465195805349,0.5287510615866738,0.0024108809788908
mstmip-v2.ORCHIDEE-LSCE,3,ENF,25056,23455.79603319107,31424.395079702,-11712.704713697349,0.8810944858226473,23.47385228425085,0.0545133628384595,0.0,-6406.014305965664,14.974810816175156,0.0,0.0006353559871867,4.0844366619668655e-05,2.6203214152061584e-54,53262.566477324726,124.5075047427104,0.5520276015555835,0.0012904293533817
mstmip-v2.ORCHIDEE-LSCE,4,DBMF,15840,11497.797817447496,15797.950554366114,-5734.393468225695,0.878904927719007,21.30304225835938,0.0622229318515048,0.0,-5798.001254532544,17.362032183848147,0.0,0.0003377188242882,5.489235801452242e-05,7.816255448502452e-10,48207.26468992794,144.35596756511833,0.4996330906372191,0.0014961441743355
mstmip-v2.SiB3,-1,NA,117997,366966.8065106699,240995.4191262544,-183465.88563361584,0.3574595134996015,15.53992157112832,0.0631354060054415,0.0,-4292.917497855051,17.42078375212039,0.0,-0.0043485209639603,5.577742772872151e-05,0.0,35693.30205807392,144.84445528326677,0.3699350074522957,0.0015012069927701
mstmip-v2.SiB3,1,CRO,14784,27260.656815139177,14795.689526361111,-13615.926456378766,0.6308994019784088,18.86914233243623,0.1124008729524466,0.0,-5037.059811242528,31.859967578270187,0.0,-0.0019630303583959,0.0001004014395977,4.579263397859556e-84,41880.44550520613,264.89850944021947,0.4340602305403495,0.0027454795833803
mstmip-v2.SiB3,3,ENF,25092,43711.93153879812,16019.235336831623,-21840.770312875236,0.477046603691394,12.849649061908629,0.0814689069557891,0.0,-3383.102338307481,22.37738420575354,0.0,-0.0011047143128775,6.104842281765878e-05,1.0000698453692504e-72,28128.677924725944,186.05592446736145,0.2915332030860088,0.0019283337723248
mstmip-v2.SiB3,4,DBMF,15936,26571.39890712413,11881.565153022028,-13271.184949592329,0.5846875114198256,15.89984893075305,0.0994436332017291,0.0,-4148.869893574923,27.75389753096444,0.0,-0.0012771996983887,8.767456884195763e-05,9.168264388540948e-48,34495.623637074335,230.75874352500637,0.3575219453355697,0.0023916458434334
mstmip-v2.SiBCASA,-1,NA,118656,334317.33254737454,273793.1348865426,-167141.14029794303,0.575474247423883,21.83021511551503,0.0545293875634928,0.0,-6000.52588730113,15.046636132247116,0.0,-0.0026391594632391,4.7911458166415386e-05,0.0,49891.148178306525,125.10469364821677,0.5170853131805022,0.0012966187802341
mstmip-v2.SiBCASA,1,CRO,14784,22473.006111913342,14592.47941507146,-11222.10110476585,0.7292871071645649,20.285097310944863,0.0955979808545808,0.0,-5406.158157344035,27.097196761662197,0.0,-0.0006702455172514,8.53923519303857e-05,4.4797642301200205e-15,44949.29990623274,225.29862952743096,0.4658666650883962,0.0023350557496086
mstmip-v2.SiBCASA,3,ENF,25152,33751.79763493133,36814.44497754369,-16860.699778422822,0.8471235875794445,24.877299198089798,0.0666676448176587,0.0,-6772.727265461399,18.312716157244594,0.0,0.0009821602890006,4.9883981073693554e-05,1.1869703424310925e-85,56311.58767058817,152.2603939234548,0.5836284793902241,0.0015780677805913
mstmip-v2.SiBCASA,4,DBMF,15936,21678.230650012138,17311.873235923504,-10824.600821036332,0.7903214859396304,21.77288021831231,0.0852906958284853,0.0,-5799.854998467447,23.80392948401726,0.0,-0.0009476115065429,7.519661885063728e-05,3.07344148064706e-36,48222.67757457804,197.91688185636957,0.4997928339299136,0.0020512639330859
mstmip-v2.TEM6,-1,NA,105642,385186.86383810086,440918.9541401781,-192576.08020210275,0.4625168807391047,29.824098838240715,0.1004285040078939,0.0,-8441.42021864917,28.003998870877627,0.0,-0.003653255178752,7.892522862657279e-05,0.0,70185.87285078791,232.83820176642624,0.7274253122856963,0.0024131979093864
mstmip-v2.TEM6,1,CRO,14784,28383.58365354793,17657.114336534298,-14177.389875583143,0.6663068397668512,20.54406081856777,0.1167517024525838,0.0,-5684.554901525769,33.09320788301051,0.0,-0.0006482066525428,0.000104287793269,5.251606993421016e-10,47264.01922870468,275.1522398529938,0.4898570403250558,0.0028517520103609
mstmip-v2.TEM6,3,ENF,24741,77783.58264843,85814.28628330874,-38876.61699861675,0.6089473900946418,32.69497343535377,0.167528120916389,0.0,-9039.905172162977,46.07279887362062,0.0,-0.0016319492066532,0.0001235428050374,1.05298812188822e-39,75161.95362421393,383.0705639413512,0.7789987552528251,0.0039702466220645
mstmip-v2.TEM6,4,DBMF,15868,44640.52845605673,39621.25044597665,-22305.756138355915,0.6099672173649635,28.276661892064027,0.178159063263256,0.0,-7807.093701823356,49.74663515464764,0.0,-0.0019921556935264,0.0001560748140117,3.960937789980118e-37,64911.78873903354,413.6165383646025,0.672763282361666,0.0042868333379004
mstmip-v2.TRIPLEX-GHG,-1,NA,118848,373591.53113647015,792743.9629032712,-186778.237167268,0.7965606166639657,42.54888344957985,0.0641497944757864,0.0,-12063.039015076689,17.700103595292145,0.0,-0.0028466424314254,5.623448080996998e-05,0.0,100297.68695033068,147.16684967778394,1.0395122734525948,0.0015252769145231
mstmip-v2.TRIPLEX-GHG,1,CRO,14784,41652.08621988654,61404.88911769126,-20811.64115875245,0.7645821750080383,40.056463510507456,0.1828735317177632,0.0,-11345.297419591136,51.835405174447786,0.0,-0.0023474994163649,0.0001633507406704,1.6212821342055491e-46,94330.05128528236,430.9835386118299,0.9776620882097068,0.004466829611583
mstmip-v2.TRIPLEX-GHG,3,ENF,25152,67417.16093183655,123536.67252266868,-33693.38142687544,0.8262775924387475,43.8932391028458,0.1301851993608582,0.0,-12315.0125930828,35.76014437423503,0.0,0.0002980094203853,9.741091107619156e-05,0.0022208658268422,102392.7118453862,297.3263836138602,1.0612256764015326,0.0030815708156952
mstmip-v2.TRIPLEX-GHG,4,DBMF,15936,38798.20471549161,63915.39513551352,-19384.587853776065,0.8337149713256579,40.85689830861195,0.1459425649198145,0.0,-11464.26665890806,40.73136571723957,0.0,-0.002450207005586,0.0001286703939012,5.851478595383342e-80,95319.21657827482,338.65941763607515,0.987914064040896,0.0035099575260129
mstmip-v2.VEGAS2.1,-1,NA,118176,190362.3690335211,178827.37428493792,-95163.66462128409,0.8063265283740807,20.416102631733487,0.0299658268347722,0.0,-5688.280447763894,8.27081904660035,0.0,-0.0042433208505647,2.6290533868442663e-05,0.0,47294.9951436332,68.76741578320102,0.4901780830602244,0.0007127240407413
mstmip-v2.VEGAS2.1,1,CRO,14784,14139.211586064912,12443.750507604338,-7055.203841841634,0.8193352783358989,18.829297630470364,0.0721177270805792,0.0,-5224.228433394652,20.441731334042792,0.0,-0.0029975950583089,6.441874897600657e-05,0.0,43436.652017352535,169.96201102409808,0.450189174473066,0.0017615321135743
mstmip-v2.VEGAS2.1,3,ENF,25152,25191.953255471053,23709.39338899416,-12580.777588692685,0.8310970632795277,19.63020273255352,0.0562360184464891,0.0,-5412.869730794529,15.447287007675223,0.0,-0.0025313624082063,4.207852981033299e-05,0.0,45005.10303279483,128.43589037483272,0.4664450237397482,0.0013311442013868
mstmip-v2.VEGAS2.1,4,DBMF,15936,11076.971696831755,14278.887674128451,-5523.971344446141,0.8692945459169046,20.19324936206429,0.0611570747900124,0.0,-5556.191436197517,17.068434975342576,0.0,-0.0028260317742718,5.391919011016642e-05,0.0,46196.74599471599,141.9148645502496,0.478795532731086,0.0014708439244307
mstmip-v2.VISIT,-1,NA,118944,434230.9629981071,386683.346303732,-217097.9518869439,0.306779732503087,17.71157857755416,0.0826273119051015,0.0,-5153.626712894392,22.79771971025844,0.0,-0.0033447257435887,7.243322468865672e-05,0.0,42849.63665148664,189.5507883065856,0.4441051889288624,0.0019645554835665
mstmip-v2.VISIT,1,CRO,14784,46571.502460928685,42442.93513891178,-23271.34927927352,0.5249388064536731,27.150506955314047,0.2159768425218314,0.0,-7731.707148780108,61.21852099239355,0.0,-0.0042539859092447,0.0001929200845098,4.804718175213495e-106,64284.99006185557,508.9991043205045,0.6662669718512051,0.0052754039719736
mstmip-v2.VISIT,3,ENF,25152,84669.7175223473,62878.06029844955,-42319.65972213081,0.3222820352264931,19.583177738347715,0.1834466604095692,0.0,-5506.331093384023,50.390359990414005,0.0,-0.0006621533095253,0.0001372637320687,1.4156669014268205e-06,45782.18403827253,418.9687644478601,0.4744989008252784,0.0043423052522886
mstmip-v2.VISIT,4,DBMF,15936,48947.7832326239,34786.78587607995,-24459.37711234221,0.4223765084234014,21.84977188475191,0.2006699010087462,0.0,-5970.555943894678,56.005313671993605,0.0,-2.9007587353982676e-05,0.0001769207990903,0.8697662560640296,49641.96420419001,465.6540869351552,0.5145027032787395,0.0048261645235364
trendy-v6.CABLE,-1,NA,118444,458655.42956830806,847736.871679188,-229310.191490823,0.6070068342020098,37.76363482004744,0.0924340963815159,0.0,-10697.446738032084,25.504120020443303,0.0,-0.0078831637872885,8.115260941456478e-05,0.0,88943.5210114138,212.05305251496128,0.9218346359397132,0.0021977750176985
trendy-v6.CABLE,1,CRO,14784,20931.01482867829,30325.77154949201,-10451.105463148322,0.8826376854947737,30.774797316308973,0.0907402491368613,0.0,-8540.16548565976,25.72027529330351,0.0,-0.0029815951625312,8.10532107402187e-05,1.5730410469216063e-283,71006.88668205189,213.85026745084105,0.7359345210244371,0.0022164018379243
trendy-v6.CABLE,3,ENF,25139,43241.22360468877,83686.93919866146,-21605.413538788227,0.9018897499135108,38.51894588737336,0.0805536939592526,0.0,-10636.4253711134,22.127370929424195,0.0,-0.0023456512438092,6.0297467740768246e-05,0.0,88436.16113726916,183.9771984273174,0.9165762213913108,0.0019067892951043
trendy-v6.CABLE,4,DBMF,15936,17957.919488143336,37841.21446394556,-8964.445240101932,0.9240469069098534,33.72645791224451,0.0758940844289003,0.0,-9310.65711866449,21.181412772531715,0.0,-0.0030022208270322,6.691208794092279e-05,0.0,77413.1105621515,176.11206469364268,0.8023303527961756,0.001825272928206
trendy-v6.CLASS-CTEM,-1,NA,89472,330274.58703704784,300397.7135666519,-165120.1909970147,0.3009739388130265,17.104021406293402,0.0981014887847024,0.0,-5026.256157172244,27.04099080485273,0.0,-0.006244014024698,8.77622011341485e-05,0.0,41790.61892730095,224.83130720062977,0.4331292436646409,0.0023302122949972
trendy-v6.CLASS-CTEM,1,CRO,12528,40458.74994712713,28199.346930713426,-20215.22139143622,0.3442681023859247,19.0555233425027,0.2412067131663613,0.0,-5453.496815646814,68.13190581629205,0.0,-0.0036915190039455,0.0002197325296392,1.1809226853939324e-62,45342.89541107747,566.480184002657,0.4699459950360996,0.0058711533819325
trendy-v6.CLASS-CTEM,3,ENF,19008,59730.06646067139,36751.06904211952,-29850.25430750245,0.2997899039938516,15.9476251341963,0.1839057855100202,0.0,-4483.396828271333,50.33792366810095,0.0,-0.0031583117117253,0.0001464189281002,5.6860186091281295e-102,37277.03533032176,418.5327846061628,0.3863492461494668,0.0043377866396445
trendy-v6.CLASS-CTEM,4,DBMF,12960,38118.65492578845,25287.63350893901,-19045.123028439368,0.4329244062666718,20.77458237187048,0.2057073079288629,0.0,-5706.573706365935,57.38792786964382,0.0,-0.0028838609233902,0.0001861263105597,1.1509289940040875e-53,47447.09375844128,477.1497809966339,0.4917544741184393,0.0049453089966755
trendy-v6.CLM4.5,-1,NA,114552,434231.44107883313,525903.4151846291,-217098.24736319552,0.4353662833253198,25.836583414444707,0.0904654578540769,0.0,-7233.683363875363,24.9445321208251,0.0,-0.0058668162001177,7.95483298089554e-05,0.0,60144.1899193902,207.40037984210056,0.6233506025820051,0.0021495534634947
trendy-v6.CLM4.5,1,CRO,14496,35746.164517805395,29174.37528729816,-17858.709816860275,0.6581369472021195,26.06961451273716,0.1552774650409641,0.0,-7270.266893112147,43.957525629188325,0.0,-0.0038997754974072,0.0001366436977112,2.394272690272561e-174,60448.36230566395,365.48320362366326,0.6265031272153351,0.0037879664771902
trendy-v6.CLM4.5,3,ENF,24000,39378.64475392041,22267.23862064384,-19674.19366329621,0.6748353389443391,17.92014359445171,0.0780598752959661,0.0,-4760.186370489949,21.415958480660887,0.0,-0.0021133241614653,6.0121425562706645e-05,5.509447992297876e-264,39578.391632151775,178.06218621609503,0.4102011234367714,0.0018454845135271
trendy-v6.CLM4.5,4,DBMF,16032,24300.27379441176,13928.83347669973,-12135.613384200053,0.6937420501039625,18.500604650532896,0.0928237191410337,0.0,-4932.436550388116,25.89113483791365,0.0,-0.0018085436409599,8.033186475834567e-05,1.577247254907709e-110,41010.55931385887,215.27087274743053,0.4250444954829675,0.0022311253742932
trendy-v6.DLEM,-1,NA,115026,313625.93790278706,336560.3932310344,-156795.4895811904,0.6943255941996724,27.7523622632711,0.0554899252702653,0.0,-7790.001427665734,15.360801074995749,0.0,-0.0046607593285064,4.670338708250506e-05,0.0,64769.67566449338,127.71680632058636,0.6712903841354513,0.0013236914203431
trendy-v6.DLEM,1,CRO,14782,33146.49431653191,37760.72578589106,-16558.845410010937,0.784615348612611,31.18979951252476,0.137179481741692,0.0,-8881.307869177128,38.88353124873061,0.0,-0.0055600862840834,0.0001225383054375,0.0,73843.30227722246,323.29566702340554,0.7653318971100123,0.0033507234717317
trendy-v6.DLEM,3,ENF,25128,51425.04085523712,46482.68383328755,-25697.32282055673,0.755284835300901,26.4793593376894,0.0950350250655977,0.0,-7267.4383913414,26.10744159900486,0.0,-0.0022141201841858,7.098338808611039e-05,1.3524352870864778e-209,60424.84483342613,217.06934722654407,0.6262593857914287,0.0022497652487647
trendy-v6.DLEM,4,DBMF,15898,31606.31966262899,29816.080910902467,-15788.648908423296,0.7724734198928449,27.57332829507811,0.1178617616412365,0.0,-7643.722432580031,32.90543169765431,0.0,-0.0037188411395472,0.0001031277627004,8.878883134907351e-274,63553.444428054696,273.59098177929906,0.6586850356366316,0.0028355707106821
trendy-v6.ISAM,-1,NA,98774,292932.2362803784,410043.5594969664,-146448.8672556524,0.7263687088581158,36.13298003723799,0.0714056754180888,0.0,-10206.530354167686,19.933056647248463,0.0,-0.0010295073972384,5.644648269389118e-05,3.373704927146448e-74,84861.81508920953,165.73265435602377,0.8795307351044258,0.0017176979205939
trendy-v6.ISAM,1,CRO,13437,27643.203996817825,35088.51143144792,-13807.3433473466,0.8249381285459036,37.24970546795819,0.1487821327120925,0.0,-10456.152328891769,42.51930238984785,0.0,0.0033823755041638,0.0001154845688835,7.597182442625887e-183,86937.28766668425,353.52515026382804,0.9010414925615512,0.0036640299876049
trendy-v6.ISAM,3,ENF,22453,46078.96736397577,77998.36625797194,-23024.454912716086,0.8689581302432355,42.20430300499182,0.1116532507139815,0.0,-11765.807315851436,30.89580702270353,0.0,0.0021736781157461,7.359910728443107e-05,4.147284563090355e-188,97826.36509823769,256.8820325432104,1.01389882737009,0.0026623946551265
trendy-v6.ISAM,4,DBMF,15142,28985.425434318084,46274.01148243184,-14478.274875731047,0.8703156676734812,38.81724574824664,0.1238194958011112,0.0,-10823.566098113604,34.693764985658994,0.0,0.0010707750280129,0.0001010818457253,3.957805966348422e-26,89992.13571621769,288.46001205093904,0.9327027615058224,0.0029896773499445
trendy-v6.JULES,-1,NA,113760,373798.9894857503,259521.52223675876,-186882.0319735076,0.3141365005992721,15.5387257388826,0.0702268092580734,0.0,-4344.372514204069,19.359609804690688,0.0,-0.0028758598694546,6.187232509797875e-05,0.0,36121.12286801641,160.96475202016703,0.3743690576911002,0.0016682820950903
trendy-v6.JULES,1,CRO,14592,36872.05839752275,25085.953048400297,-18421.646855692903,0.5746380859957416,22.580742741569782,0.1592372749870511,0.0,-6287.661055866222,45.0928882953574,0.0,-0.002819480154855,0.0001410325264286,9.694753102618136e-88,52278.52280365412,374.9231340693988,0.5418287075681225,0.0038858044618661
trendy-v6.JULES,3,ENF,23616,51673.68176523986,26286.261564423,-25821.73636302883,0.5314904908360867,17.141852319519675,0.1025823206937375,0.0,-4602.400558658983,28.13863153882274,0.0,-0.000304131468453,8.012449291899293e-05,0.000147573494811,38266.487398032434,233.9576000512175,0.3966041941911664,0.0024247996550627
trendy-v6.JULES,4,DBMF,16176,29927.086668111373,15400.626711562292,-14949.006408143796,0.6095526115382189,17.992928621014222,0.1087388471896058,0.0,-4808.163762450722,30.3356299115072,0.0,-0.001019464272421,9.457114169128808e-05,5.293332080943278e-27,39977.297864118766,252.2244608927093,0.4143354951924407,0.0026141223265973
trendy-v6.LPJ-wsl,-1,NA,116371,383448.8288374581,490916.6369135293,-191706.9176107655,0.6256686397675407,30.53368319515401,0.0703908389169852,0.0,-8500.894083713463,19.444613483212706,0.0,-0.0046652141079342,6.198133653676882e-05,0.0,70680.36607861296,161.67151192763083,0.7325503734420706,0.0016756071453535
trendy-v6.LPJ-wsl,1,CRO,14780,26219.603470686277,30883.225316803724,-13095.400190051383,0.8351586841415362,30.34804261508935,0.1085535647239024,0.0,-8409.687405672175,30.76917451334193,0.0,-0.0017850638552551,9.698548018016444e-05,8.128831028807517e-75,69922.0315635267,255.82915127789985,0.7246907900380658,0.0026514823097768
trendy-v6.LPJ-wsl,3,ENF,25096,36524.69877366167,66598.49736486451,-18247.153691206026,0.9055478949815576,34.861629447076375,0.070577254078072,0.0,-9506.316097071212,19.387177439432705,0.0,-0.0015295744223668,5.296044784212845e-05,1.8305821244474489e-180,79039.90982399025,161.1939620886962,0.8191909390224807,0.0016706576900485
trendy-v6.LPJ-wsl,4,DBMF,15936,24562.702534657896,36262.30966446411,-12266.836763359212,0.8800358847100188,32.44843603830729,0.0933697228403161,0.0,-8885.545373854478,26.05871926408683,0.0,-0.0024245395844538,8.231950029733485e-05,1.0584612515203311e-185,73878.5348514559,216.6642471942064,0.7656970570100519,0.0022455666827918
trendy-v6.OCN,-1,NA,98905,333364.799981872,299688.31464220094,-166665.14711832732,0.4380000682478667,22.57882015917805,0.081820282841443,0.0,-6231.792002105124,22.588861576916663,0.0,-0.0040311602066364,7.106274724214571e-05,0.0,51814.00164465443,187.8142451644501,0.5370142850152103,0.0019465574821716
trendy-v6.OCN,1,CRO,12720,5425.615306646505,8797.711288768289,-2698.631257067911,0.8706042866512511,18.607146299192276,0.0601021882133837,0.0,-4922.649987352603,16.95332765911827,0.0,0.0002433975649002,5.5043584038418906e-05,9.864566312774264e-06,40929.18930134139,140.9578090724443,0.4242011547313029,0.0014609247433827
trendy-v6.OCN,3,ENF,22320,3094.942316447138,19206.368453762392,-1532.4513005988265,0.9219432707405932,20.42958609134646,0.0388214716719245,0.0,-5451.772879456028,10.649073995091412,0.0,-0.0004582116008651,2.949124981816405e-05,3.734503773186808e-54,45328.561808063365,88.54132764850345,0.4697974377093156,0.0009176661954725
trendy-v6.OCN,4,DBMF,13440,-3550.619954058302,10647.867671863747,1789.5689629502667,0.9433750903078,20.16222992654074,0.0408477827261372,0.0,-5357.414609656823,11.393183527882323,0.0,-0.0006566371108863,3.654275215713066e-05,2.326539515845276e-71,44544.02350111872,94.72819854259096,0.4616662711404739,0.0009817885937473
trendy-v6.ORCHIDEE-MICT,-1,NA,106384,423791.02085308434,967103.4869393032,-211878.1482108392,0.6541867667873207,45.26401882776439,0.1043978391416256,0.0,-12784.890149352548,28.79039488671807,0.0,-0.0082901623788881,9.208509203080016e-05,0.0,106299.4912220282,239.37666204307573,1.1017165913485742,0.0024809642748303
trendy-v6.ORCHIDEE-MICT,1,CRO,13479,27391.233668476118,25881.50746274817,-13681.35350194145,0.7678212805965642,27.810075390464483,0.1305777827936307,0.0,-7771.787318010282,36.87529191029381,0.0,-0.0036528946206443,0.0001179622237154,1.8653295545155504e-203,64618.23513064298,306.5982361159756,0.6697208136057374,0.0031776667952403
trendy-v6.ORCHIDEE-MICT,3,ENF,23037,66088.11065656137,101322.31440198956,-33028.98804293369,0.7658068529565332,40.50277382039343,0.148489591599266,0.0,-11181.56430163871,40.74412235005246,0.0,-0.003283213017321,0.0001136264038739,2.2824382238492095e-180,92968.69839673831,338.7654821827295,0.9635526597755047,0.0035110568075754
trendy-v6.ORCHIDEE-MICT,4,DBMF,14448,32811.2988102534,37189.33022809571,-16391.281938213215,0.7800465569414512,32.04020215344655,0.140145654856085,0.0,-8843.364148693576,39.09213903134705,0.0,-0.003397656169786,0.0001246574327315,1.4865685155169209e-159,73527.82063167413,325.0301286337938,0.762062160263948,0.0033686998995702
trendy-v6.ORCHIDEE,-1,NA,124159,318376.2929722381,262038.02893635136,-159170.55250869718,0.6397022165304342,21.93635729891989,0.0468774477984439,0.0,-5988.4977143850165,12.945486992911624,0.0,-0.003339545662644,4.056418045741e-05,0.0,49791.14038423266,107.63476767436892,0.5160488054349928,0.0011155557565662
trendy-v6.ORCHIDEE,1,CRO,15696,14462.874257747966,14137.779366657933,-7216.945387101276,0.8369553802280488,20.093953146037663,0.0686998275748258,0.0,-5362.318118375451,19.50149437882333,0.0,-0.00348389904101,5.886772754316093e-05,0.0,44584.79354105679,162.1444460078637,0.4620888228282886,0.0016805087616907
trendy-v6.ORCHIDEE,3,ENF,26016,22400.84023940505,30008.82757720977,-11185.170419184004,0.8800629610534034,23.08151601727695,0.0515738704059266,0.0,-6192.856005766611,14.175809778093065,0.0,-0.0008714869609866,3.810845436545138e-05,1.289902756244933e-114,51490.26975860328,117.86424047983368,0.5336590404518459,0.0012215767711635
trendy-v6.ORCHIDEE,4,DBMF,17136,4056.040848696822,15832.419711794671,-2013.39701915938,0.9198427505891076,21.68597769972563,0.0471578163828706,0.0,-5815.225261599114,13.168810188497494,0.0,-0.0008011040316561,4.037396787886596e-05,1.210411486220017e-86,48350.47305281511,109.49158003579996,0.5011173407272135,0.0011348002605812
trendy-v6.SDGVM,-1,NA,95815,219119.7472552864,193823.4399240219,-109542.66836585134,0.7151692603398838,23.277492338850987,0.048446408608895,0.0,-6487.904022405805,13.381459316025287,0.0,-0.0054065508972476,4.277920626916617e-05,0.0,53943.435463464906,111.25964325738012,0.5590843113285262,0.001153124944579
trendy-v6.SDGVM,1,CRO,12848,29887.23077199576,23736.37824157041,-14929.423970843598,0.6762197583987194,25.69838507171552,0.1551500584150094,0.0,-7147.257539554626,43.74574352130519,0.0,-0.0042332448871651,0.0001417647403008,1.7355694958310283e-189,59425.6056338456,363.7223492045077,0.6159030012758684,0.0037697165071646
trendy-v6.SDGVM,3,ENF,21936,39685.04479546475,35534.338499756705,-19827.528571129675,0.7796385032709252,24.773041366117734,0.0901118876217493,0.0,-6836.108605224696,24.710312464640293,0.0,-0.0043388823619222,6.881419158101719e-05,0.0,56838.56945072885,205.4529692663512,0.5890902606635392,0.0021293699751562
trendy-v6.SDGVM,4,DBMF,13721,31213.3576911202,28609.226378671177,-15592.388821382716,0.7274413624534359,27.44221952245399,0.1430868305742821,0.0,-7624.115601805484,39.879881458664336,0.0,-0.0044180966583485,0.0001283627111114,4.4112741355366677e-249,63390.42416652227,331.57978359833595,0.6569954496866752,0.0034365822897782
trendy-v6.VEGAS,-1,NA,119904,199129.5202871473,159194.80289675092,-99547.21847352126,0.7679646631089965,18.706182187593008,0.0304365553817077,0.0,-5208.157477590052,8.399162318507466,0.0,-0.0032918360252106,2.654130710906104e-05,0.0,43303.03065607966,69.83452111974454,0.4488042866529971,0.0007237838082009
trendy-v6.VEGAS,1,CRO,14928,12649.082419413524,11556.514938037291,-6310.124718822131,0.8238606513670296,18.274971410768973,0.0679892678348196,0.0,-5051.735814687538,19.269794710480053,0.0,-0.0022876961701064,6.021330805547055e-05,1.3797029240529116e-301,42002.468587231306,160.21798777682054,0.4353249106667465,0.0016605424291026
trendy-v6.VEGAS,3,ENF,25296,24602.936593499937,18949.72585205746,-12286.260694410794,0.793534255143441,17.125303555420903,0.0551074735166432,0.0,-4713.731591748991,15.139175412532248,0.0,-0.0016431458980846,4.137853947065024e-05,0.0,39192.14511088263,125.87410803484411,0.4061979603365447,0.0013045931984146
trendy-v6.VEGAS,4,DBMF,16608,10700.031306259014,12624.453448899834,-5335.439193450558,0.8535562507958031,18.580568687607368,0.0587894226472353,0.0,-5102.961413439099,16.409316427509395,0.0,-0.0019413150418108,5.0856392032876365e-05,1.1100870687180252e-305,42428.38191313583,136.43464802346017,0.4397391912266166,0.0014140454825723
trendy-v6.VISIT,-1,NA,114008,372919.96319545805,275409.65778809134,-186442.5155618785,0.361846414844471,17.013358050813043,0.0695138427992063,0.0,-4727.304590123142,19.183609693123135,0.0,-0.0042480036943167,6.138047437630378e-05,0.0,39304.99729847867,159.5014056717748,0.4073675908400892,0.0016531155789351
trendy-v6.VISIT,1,CRO,14072,27974.02960064982,21296.46505464017,-13972.686886895284,0.718140385865867,22.11353767506033,0.1210858333984135,0.0,-6204.760241853089,34.323521662792025,0.0,-0.0060771626936862,0.0001110917752154,0.0,51589.24708454015,285.3816377833975,0.5346848681477113,0.0029577722489328
trendy-v6.VISIT,3,ENF,24330,37531.006320582266,26444.97278136474,-18750.353962137466,0.7483954977278336,20.52867161204076,0.0746700254086787,0.0,-5512.8853126000495,20.503592330072397,0.0,-0.000823922947961,5.650477357856447e-05,5.873276295261359e-48,45836.67884893436,170.47635196309844,0.4750636997378445,0.0017668628817614
trendy-v6.VISIT,4,DBMF,15056,21865.923093431946,13771.047624677924,-10918.532248923237,0.7269988745539779,18.920503489864885,0.0915535201399683,0.0,-5068.2818305660285,25.55178624066086,0.0,-0.0004432845049424,8.11768303742017e-05,4.8170438928403056e-08,42140.039817729856,212.44937152110148,0.4367507359965773,0.0022018825747481
FluxCom-ANN,-1,NA,110331,304304.8932602768,205703.85916776105,-152135.02976981224,0.5049203820856614,19.78843956615485,0.0603716881529046,0.0,-5628.739171987594,16.83007304427933,0.0,-5.425111328958236e-05,4.885116871290511e-05,0.2667693824846245,46799.941431963125,139.93301318486996,0.4850472128981423,0.0014503034824612
FluxCom-ANN,1,CRO,15155,29409.310556451223,23030.4883650659,-14690.216149541377,0.7322503390047259,25.144451518243287,0.1235701986010268,0.0,-7134.738461575416,35.21662878014777,0.0,0.0019428286090828,9.933611308970168e-05,3.826497635885861e-84,59321.51622797563,292.8073435245216,0.614824190605072,0.0030347342656219
FluxCom-ANN,3,ENF,26050,38111.79370064602,33036.8554138853,-19040.64519075224,0.8008365251361871,22.09848097820326,0.0697936982921335,0.0,-6123.9774913681385,19.186920823902117,0.0,0.0016785947025316,5.1422687215114347e-05,4.1539239753148696e-229,50917.58192545381,159.52893594485988,0.5277235493202243,0.0016534009101091
FluxCom-ANN,4,DBMF,17024,22337.07886832769,19651.94658218493,-11153.925865075633,0.8119510016294949,21.836768435704112,0.0823262978885487,0.0,-6031.491372701562,23.00716523967117,0.0,0.0021798512886773,6.930033405723662e-05,3.7823580247783213e-211,50148.60954911664,191.29221533139497,0.5197537122536491,0.0019826041028383
FluxCom-MARS,-1,NA,116761,321536.8514886026,244756.9348308354,-160750.92391771704,0.5615501546030734,22.124898724544572,0.0581258026871066,0.0,-6247.491430013526,16.158504698800314,0.0,-0.0013449098962848,4.6058106885502685e-05,9.085752250654888e-187,51944.53395112283,134.34928328095256,0.5383671570383026,0.0013924322000493
FluxCom-MARS,1,CRO,15741,17480.18237245155,20451.1539925098,-8725.595150147243,0.8634414760775869,23.86700867712177,0.0754044948589847,0.0,-6710.121046496471,21.407659349071192,0.0,0.0031486897237575,6.458760362335397e-05,0.0,55791.05060334995,177.99318339673064,0.5782334928592874,0.0018447693497002
FluxCom-MARS,3,ENF,26098,28956.28214087653,31993.83605238505,-14462.886649495234,0.8553169132121891,22.76405647634349,0.0583866204459923,0.0,-6266.203891174395,16.049336552393054,0.0,0.0007438474454451,4.307769904545734e-05,1.9329687030050533e-66,52100.11800993565,133.44160880857305,0.5399796721780544,0.0013830248170575
FluxCom-MARS,4,DBMF,17136,17432.421983513068,19793.648669617807,-8701.587586567503,0.8600493207717521,22.157769306162685,0.0696721272829311,0.0,-6109.52340267405,19.455926715704035,0.0,0.0023045671335792,5.9649501285964586e-05,0.0,50797.40394532955,161.7655753762687,0.5264779923274715,0.0016765820443
FluxCom-RF,-1,NA,125140,306911.43161346373,312778.99913258414,-153438.11002414755,0.727925022571269,24.98674475254929,0.044131559576362,0.0,-7050.9633222595,12.185920415705128,0.0,-8.300685815588468e-05,3.8056567554441225e-05,0.0291746142184326,58624.97096381571,101.3193797623033,0.6076050076595262,0.0010501013732617
FluxCom-RF,1,CRO,15744,7773.077948930585,18067.60976988056,-3872.0426525363546,0.9165629821383172,23.26423378678641,0.0553724720720396,0.0,-6503.587266797223,15.720147115381607,0.0,0.0028248496063776,4.744587807386966e-05,0.0,54073.8332126863,130.70457554030094,0.5604357887640264,0.0013546574662069
FluxCom-RF,3,ENF,26070,27986.453542940257,41001.5526298709,-13977.973960709736,0.8912126349165217,26.05186489192481,0.057439459724737,0.0,-7225.72422963547,15.79031853107241,0.0,0.0014685485230053,4.230429045109246e-05,3.666995693041018e-258,60078.01399528096,131.28801315291423,0.6226647374597847,0.0013607043709516
FluxCom-RF,4,DBMF,17136,17329.314895759704,24453.92769563988,-8650.03404269082,0.8873998160445589,25.11873097276358,0.0694628341302753,0.0,-6951.535899332477,19.39748164736796,0.0,0.0019102282321036,5.947031582593418e-05,7.155992916906976e-220,57798.28537268489,161.27963604038194,0.5990370152720998,0.0016715456379863
